Joins and import: how to combine, import and export files in R
…
Data from Google Drive

Data from API’s: aemet, catastro, twitter, spotify, etc.

4.1 R native formats

The simplest files to import into R (and which usually take up less disk space) are its own native extensions: files in .RData, .rda and .rds formats. To load the former we simply need to use the native function load() by providing it the file path.

RData file: we are going to import the file world_bank_pop.RData, which includes the dataset world_bank_pop

load("./datos/world_bank_pop.RData")
world_bank_pop

# A tibble: 1,064 × 20
   country indicator      `2000`  `2001`  `2002`  `2003`  `2004`  `2005`  `2006`
   <chr>   <chr>           <dbl>   <dbl>   <dbl>   <dbl>   <dbl>   <dbl>   <dbl>
 1 ABW     SP.URB.TOTL    4.16e4 4.20e+4 4.22e+4 4.23e+4 4.23e+4 4.24e+4 4.26e+4
 2 ABW     SP.URB.GROW    1.66e0 9.56e-1 4.01e-1 1.97e-1 9.46e-2 1.94e-1 3.67e-1
 3 ABW     SP.POP.TOTL    8.91e4 9.07e+4 9.18e+4 9.27e+4 9.35e+4 9.45e+4 9.56e+4
 4 ABW     SP.POP.GROW    2.54e0 1.77e+0 1.19e+0 9.97e-1 9.01e-1 1.00e+0 1.18e+0
 5 AFE     SP.URB.TOTL    1.16e8 1.20e+8 1.24e+8 1.29e+8 1.34e+8 1.39e+8 1.44e+8
 6 AFE     SP.URB.GROW    3.60e0 3.66e+0 3.72e+0 3.71e+0 3.74e+0 3.81e+0 3.81e+0
 7 AFE     SP.POP.TOTL    4.02e8 4.12e+8 4.23e+8 4.34e+8 4.45e+8 4.57e+8 4.70e+8
 8 AFE     SP.POP.GROW    2.58e0 2.59e+0 2.61e+0 2.62e+0 2.64e+0 2.67e+0 2.70e+0
 9 AFG     SP.URB.TOTL    4.31e6 4.36e+6 4.67e+6 5.06e+6 5.30e+6 5.54e+6 5.83e+6
10 AFG     SP.URB.GROW    1.86e0 1.15e+0 6.86e+0 7.95e+0 4.59e+0 4.47e+0 5.03e+0
# ℹ 1,054 more rows
# ℹ 11 more variables: `2007` <dbl>, `2008` <dbl>, `2009` <dbl>, `2010` <dbl>,
#   `2011` <dbl>, `2012` <dbl>, `2013` <dbl>, `2014` <dbl>, `2015` <dbl>,
#   `2016` <dbl>, `2017` <dbl>

.rda file: we will import the airquality dataset from airquality.rda

load("./datos/airquality.rda")
airquality |> as_tibble()

# A tibble: 153 × 6
   Ozone Solar.R  Wind  Temp Month   Day
   <int>   <int> <dbl> <int> <int> <int>
 1    41     190   7.4    67     5     1
 2    36     118   8      72     5     2
 3    12     149  12.6    74     5     3
 4    18     313  11.5    62     5     4
 5    NA      NA  14.3    56     5     5
 6    28      NA  14.9    66     5     6
 7    23     299   8.6    65     5     7
 8    19      99  13.8    59     5     8
 9     8      19  20.1    61     5     9
10    NA     194   8.6    69     5    10
# ℹ 143 more rows

Note that files loaded with load() are automatically loaded into the environment (with the originally saved name), and not only datasets can be loaded: load() allows us to load multiple objetcs (not only a tabular data)

Native .rda and .RData files are a properly way to save your environment.

load(file = "./datos/multiple_objects.rda")

.rds files: for this type we must use readRDS(), and we need to incorporate a argument file with the path. In this case we are going to import lung cancer data from the North Central Cancer Treatment Group. Note that now .rds import files are a unique database

lung_cancer <-
  readRDS(file = "./datos/NCCTG_lung_cancer.rds") |>
  as_tibble()
lung_cancer

# A tibble: 228 × 10
    inst  time status   age   sex ph.ecog ph.karno pat.karno meal.cal wt.loss
   <dbl> <dbl>  <dbl> <dbl> <dbl>   <dbl>    <dbl>     <dbl>    <dbl>   <dbl>
 1     3   306      2    74     1       1       90       100     1175      NA
 2     3   455      2    68     1       0       90        90     1225      15
 3     3  1010      1    56     1       0       90        90       NA      15
 4     5   210      2    57     1       1       90        60     1150      11
 5     1   883      2    60     1       0      100        90       NA       0
 6    12  1022      1    74     1       1       50        80      513       0
 7     7   310      2    68     2       2       70        60      384      10
 8    11   361      2    71     2       2       60        80      538       1
 9     1   218      2    53     1       1       70        80      825      16
10     7   166      2    61     1       2       70        70      271      34
# ℹ 218 more rows
…
We can also load an Excel with several sheets: to indicate the sheet (either by its name or by its number) we will use the argument sheet = ....

mtcars <- read_xlsx(path = "./datos/datasets.xlsx", sheet = "mtcars")
mtcars

# A tibble: 32 × 11
     mpg   cyl  disp    hp  drat    wt  qsec    vs    am  gear  carb
   <dbl> <dbl> <dbl> <dbl> <dbl> <dbl> <dbl> <dbl> <dbl> <dbl> <dbl>
 1  21       6  160    110  3.9   2.62  16.5     0     1     4     4
 2  21       6  160    110  3.9   2.88  17.0     0     1     4     4
 3  22.8     4  108     93  3.85  2.32  18.6     1     1     4     1
 4  21.4     6  258    110  3.08  3.22  19.4     1     0     3     1
 5  18.7     8  360    175  3.15  3.44  17.0     0     0     3     2
 6  18.1     6  225    105  2.76  3.46  20.2     1     0     3     1
 7  14.3     8  360    245  3.21  3.57  15.8     0     0     3     4
 8  24.4     4  147.    62  3.69  3.19  20       1     0     4     2
 9  22.8     4  141.    95  3.92  3.15  22.9     1     0     4     2
10  19.2     6  168.   123  3.92  3.44  18.3     1     0     4     4
# ℹ 22 more rows
…
covid_data <-
  read_csv(file = "https://cnecovid.isciii.es/covid19/resources/casos_hosp_uci_def_sexo_edad_provres.csv")
covid_data

Rows: 500 Columns: 8
── Column specification ────────────────────────────────────────────────────────
Delimiter: ","
chr  (3): provincia_iso, sexo, grupo_edad
dbl  (4): num_casos, num_hosp, num_uci, num_def
date (1): fecha

ℹ Use `spec()` to retrieve the full column specification for this data.
ℹ Specify the column types or set `show_col_types = FALSE` to quiet this message.

# A tibble: 500 × 8
   provincia_iso sexo  grupo_edad fecha      num_casos num_hosp num_uci num_def
   <chr>         <chr> <chr>      <date>         <dbl>    <dbl>   <dbl>   <dbl>
 1 A             H     0-9        2020-01-01         0        0       0       0
 2 A             H     10-19      2020-01-01         0        0       0       0
 3 A             H     20-29      2020-01-01         0        0       0       0
 4 A             H     30-39      2020-01-01         0        0       0       0
 5 A             H     40-49      2020-01-01         0        0       0       0
 6 A             H     50-59      2020-01-01         0        0       0       0
 7 A             H     60-69      2020-01-01         0        0       0       0
 8 A             H     70-79      2020-01-01         0        0       0       0
 9 A             H     80+        2020-01-01         0        0       0       0
10 A             H     NC         2020-01-01         0        0       0       0
# ℹ 490 more rows
…
Once we have the API key we register it in our RStudio to be able to use it in the future.

library(climaemet)

# Api key
apikey <- "eyJhbGciOiJIUzI1NiJ9.eyJzdWIiOiJqYXZhbHYwOUB1Y20uZXMiLCJqdGkiOiI4YTU1ODUxMS01MTE3LTQ4MTYtYmM4OS1hYmVkNDhiODBkYzkiLCJpc3MiOiJBRU1FVCIsImlhdCI6MTY2NjQ2OTcxNSwidXNlcklkIjoiOGE1NTg1MTEtNTExNy00ODE2LWJjODktYWJlZDQ4YjgwZGM5Iiwicm9sZSI6IiJ9.HEMR77lZy2ASjmOxJa8ppx2J8Za1IViurMX3p1reVBU"

aemet_api_key(apikey, install = TRUE)

With this package we can do a search for stations to know both its postal code and its identifier code within the AEMET network

stations <- aemet_stations()
stations

# A tibble: 947 × 7
   indicativo indsinop nombre                 provincia altitud longitud latitud
   <chr>      <chr>    <chr>                  <chr>       <dbl>    <dbl>   <dbl>
 1 B013X      "08304"  ESCORCA, LLUC          ILLES BA…     490     2.89    39.8
 2 B051A      "08316"  SÓLLER, PUERTO         ILLES BA…       5     2.69    39.8
 3 B087X      ""       BANYALBUFAR            ILLES BA…      60     2.51    39.7
 4 B103B      "99103"  ANDRATX - SANT ELM     ILLES BA…      52     2.37    39.6
 5 B158X      ""       CALVIÀ, ES CAPDELLÀ    ILLES BA…      50     2.47    39.6
 6 B228       "08301"  PALMA, PUERTO          ILLES BA…       3     2.63    39.6
 7 B236C      ""       PALMA, UNIVERSIDAD     ILLES BA…      95     2.64    39.6
 8 B248       "08303"  SIERRA DE ALFABIA, BU… ILLES BA…    1030     2.71    39.7
 9 B275E      "08302"  SON BONET, AEROPUERTO  BALEARES       49     2.71    39.6
10 B278       "08306"  PALMA DE MALLORCA, AE… ILLES BA…       8     2.74    39.6
# ℹ 937 more rows
…
For example, we will download the census data (get_decennial()) at the state level (geography = “state”) for the population (variable variables = “P001001”) for the year 2010 (see variables in tidycensus::load_variables()).

total_population_10 <-
  get_decennial(geography = "state", 
  variables = "P001001",
  year = 2010)

Getting data from the 2010 decennial Census

Using Census Summary File 1

total_population_10

# A tibble: 52 × 4
   GEOID NAME        variable    value
   <chr> <chr>       <chr>       <dbl>
 1 01    Alabama     P001001   4779736
 2 02    Alaska      P001001    710231
 3 04    Arizona     P001001   6392017
 4 05    Arkansas    P001001   2915918
 5 06    California  P001001  37253956
 6 22    Louisiana   P001001   4533372
 7 21    Kentucky    P001001   4339367
 8 08    Colorado    P001001   5029196
 9 09    Connecticut P001001   3574097
10 10    Delaware    P001001    897934
# ℹ 42 more rows
…
