Bioestadística en R
…
Intenta responder a las preguntas planteadas en el workbook

🐣 Caso práctico II: Taylor Swift

Del paquete {taylor} vamos a usar el conjunto de datos taylor_album_songs para poner en práctico lo aprendido sobre bases de datos y manejo de variables. Intenta responder a las preguntas planteadas en el workbook

library(taylor)
taylor_album_songs

# A tibble: 240 × 29
   album_name   ep    album_release track_number track_name     artist featuring
   <chr>        <lgl> <date>               <int> <chr>          <chr>  <chr>    
 1 Taylor Swift FALSE 2006-10-24               1 Tim McGraw     Taylo… <NA>     
 2 Taylor Swift FALSE 2006-10-24               2 Picture To Bu… Taylo… <NA>     
 3 Taylor Swift FALSE 2006-10-24               3 Teardrops On … Taylo… <NA>     
 4 Taylor Swift FALSE 2006-10-24               4 A Place In Th… Taylo… <NA>     
 5 Taylor Swift FALSE 2006-10-24               5 Cold As You    Taylo… <NA>     
 6 Taylor Swift FALSE 2006-10-24               6 The Outside    Taylo… <NA>     
 7 Taylor Swift FALSE 2006-10-24               7 Tied Together… Taylo… <NA>     
 8 Taylor Swift FALSE 2006-10-24               8 Stay Beautiful Taylo… <NA>     
 9 Taylor Swift FALSE 2006-10-24               9 Should've Sai… Taylo… <NA>     
10 Taylor Swift FALSE 2006-10-24              10 Mary's Song (… Taylo… <NA>     
# ℹ 230 more rows
# ℹ 22 more variables: bonus_track <lgl>, promotional_release <date>,
#   single_release <date>, track_release <date>, danceability <dbl>,
#   energy <dbl>, key <int>, loudness <dbl>, mode <int>, speechiness <dbl>,
#   acousticness <dbl>, instrumentalness <dbl>, liveness <dbl>, valence <dbl>,
#   tempo <dbl>, time_signature <int>, duration_ms <int>, explicit <lgl>,
#   key_name <chr>, mode_name <chr>, key_mode <chr>, lyrics <list>
…
