Series temporales
…
¿Qué es una serie temporal?

Durante la carrera es probable que hayas tratado con multitud de datos pero hay uno muy especial que trataremos en esta asignatura de manera diferente: las series temporales.

Vamos a cargar el fichero retiro_temp.csv donde tenemos los datos de temperaturas diarios (AEMET) desde 1980 hasta 2024 de la estación instalada en El Retiro (Madrid).

Código

library(readr) # de tidyverse
# en tidyverse, read_ en lugar de read.
# tendremos datos en formato tibble en lugar de data.frame
retiro <- read_csv(file = "./datos/retiro_temp.csv")
retiro

# A tibble: 16,314 × 8
   fecha      id_station nombre         provincia altitud  tmed  tmin  tmax
   <date>          <dbl> <chr>          <chr>       <dbl> <dbl> <dbl> <dbl>
 1 2000-01-01       3195 MADRID, RETIRO MADRID        667   5.4   0.3  10.4
 2 2000-01-02       3195 MADRID, RETIRO MADRID        667   5     0.3   9.6
 3 2000-01-03       3195 MADRID, RETIRO MADRID        667   3.5   0.1   6.9
 4 2000-01-04       3195 MADRID, RETIRO MADRID        667   4.3   1.4   7.2
 5 2000-01-05       3195 MADRID, RETIRO MADRID        667   0.6  -0.4   1.6
 6 2000-01-06       3195 MADRID, RETIRO MADRID        667   3.8  -1.1   8.8
 7 2000-01-07       3195 MADRID, RETIRO MADRID        667   6.2   0.6  11.7
 8 2000-01-08       3195 MADRID, RETIRO MADRID        667   5.4  -0.1  11  
 9 2000-01-09       3195 MADRID, RETIRO MADRID        667   5.5   3     8  
10 2000-01-10       3195 MADRID, RETIRO MADRID        667   4.8   1.8   7.8
# ℹ 16,304 more rows
…
Ejemplo de entrega

library(dplyr)
starwars

# A tibble: 87 × 14
   name     height  mass hair_color skin_color eye_color birth_year sex   gender
   <chr>     <int> <dbl> <chr>      <chr>      <chr>          <dbl> <chr> <chr> 
 1 Luke Sk…    172    77 blond      fair       blue            19   male  mascu…
 2 C-3PO       167    75 <NA>       gold       yellow         112   none  mascu…
 3 R2-D2        96    32 <NA>       white, bl… red             33   none  mascu…
 4 Darth V…    202   136 none       white      yellow          41.9 male  mascu…
 5 Leia Or…    150    49 brown      light      brown           19   fema… femin…
 6 Owen La…    178   120 brown, gr… light      blue            52   male  mascu…
 7 Beru Wh…    165    75 brown      light      blue            47   fema… femin…
 8 R5-D4        97    32 <NA>       white, red red             NA   none  mascu…
 9 Biggs D…    183    84 black      light      brown           24   male  mascu…
10 Obi-Wan…    182    77 auburn, w… fair       blue-gray       57   male  mascu…
# ℹ 77 more rows
# ℹ 5 more variables: homeworld <chr>, species <chr>, films <list>,
#   vehicles <list>, starships <list>
…
No lo es ya que en realidad solo deberíamos tener una variable de ingresos y la tenemos dividida en 11: todas ellas es la misma variable solo que adopta un valor diferente. ¿Cómo convertirla a tidy data?

Ejemplo: relig_income

La idea es pivotar todas las columnas de ingresos para que acaben en una sola columna llamada income, y los valores (el número de personas) en otra llamada people (por ejemplo). La tabla la haremos más larga y menos ancha así que…

relig_tidy <-
  relig_income |>
  pivot_longer(cols = "<$10k":"Don't know/refused", names_to = "income",
               values_to = "people")
relig_tidy 

# A tibble: 180 × 3
   religion income             people
   <chr>    <chr>               <dbl>
 1 Agnostic <$10k                  27
 2 Agnostic $10-20k                34
 3 Agnostic $20-30k                60
 4 Agnostic $30-40k                81
 5 Agnostic $40-50k                76
 6 Agnostic $50-75k               137
 7 Agnostic $75-100k              122
 8 Agnostic $100-150k             109
 9 Agnostic >150k                  84
10 Agnostic Don't know/refused     96
# ℹ 170 more rows

Ejemplo: relig_income

Vamos a hilar más fino: ahora mismo en la variable income en realidad tenemos dos valores, el límite inferior y el superior de la renta. Vamos a separar dicha variable e ingresos en dos, llamadas income_inf y income_sup

relig_tidy 

# A tibble: 180 × 3
   religion income             people
   <chr>    <chr>               <dbl>
 1 Agnostic <$10k                  27
 2 Agnostic $10-20k                34
 3 Agnostic $20-30k                60
 4 Agnostic $30-40k                81
 5 Agnostic $40-50k                76
 6 Agnostic $50-75k               137
 7 Agnostic $75-100k              122
 8 Agnostic $100-150k             109
 9 Agnostic >150k                  84
10 Agnostic Don't know/refused     96
# ℹ 170 more rows

Ejemplo: relig_income

Vamos a hilar más fino: ahora mismo en la variable income en realidad tenemos dos valores, el límite inferior y el superior de la renta. Vamos a separar dicha variable e ingresos en dos, llamadas income_inf y income_sup

relig_tidy |>
  # Separamos por -
  separate(income, into = c("income_inf", "income_sup"), sep = "-")

# A tibble: 180 × 4
   religion income_inf         income_sup people
   <chr>    <chr>              <chr>       <dbl>
 1 Agnostic <$10k              <NA>           27
 2 Agnostic $10                20k            34
 3 Agnostic $20                30k            60
 4 Agnostic $30                40k            81
 5 Agnostic $40                50k            76
 6 Agnostic $50                75k           137
 7 Agnostic $75                100k          122
 8 Agnostic $100               150k          109
 9 Agnostic >150k              <NA>           84
10 Agnostic Don't know/refused <NA>           96
# ℹ 170 more rows

¿Está ya bien? Fíjate bien…

Ejemplo: relig_income

relig_tidy |>
  # Separamos por -
  separate(income, into = c("income_inf", "income_sup"), sep = "-")

# A tibble: 180 × 4
   religion income_inf         income_sup people
   <chr>    <chr>              <chr>       <dbl>
 1 Agnostic <$10k              <NA>           27
 2 Agnostic $10                20k            34
 3 Agnostic $20                30k            60
 4 Agnostic $30                40k            81
 5 Agnostic $40                50k            76
 6 Agnostic $50                75k           137
 7 Agnostic $75                100k          122
 8 Agnostic $100               150k          109
 9 Agnostic >150k              <NA>           84
10 Agnostic Don't know/refused <NA>           96
# ℹ 170 more rows

Si te fijas la primera columna el "$10k" debería ser una cota superior, no inferior. ¿Cómo indicarle que separe bien ese caso?

Ejemplo: relig_income

Le indicaremos que separe si encuentra "-" o "<" (usamos | para separar ambas opciones)

relig_tidy |>
  # Separamos por -
  separate(income, into = c("income_inf", "income_sup"), sep = "-|<")

# A tibble: 180 × 4
   religion income_inf           income_sup people
   <chr>    <chr>                <chr>       <dbl>
 1 Agnostic ""                   $10k           27
 2 Agnostic "$10"                20k            34
 3 Agnostic "$20"                30k            60
 4 Agnostic "$30"                40k            81
 5 Agnostic "$40"                50k            76
 6 Agnostic "$50"                75k           137
 7 Agnostic "$75"                100k          122
 8 Agnostic "$100"               150k          109
 9 Agnostic ">150k"              <NA>           84
10 Agnostic "Don't know/refused" <NA>           96
# ℹ 170 more rows

Ejemplo: relig_income

relig_tidy <-
  relig_tidy |>
  # Separamos por -
  separate(income, into = c("income_inf", "income_sup"), sep = "-|<")
relig_tidy

# A tibble: 180 × 4
   religion income_inf           income_sup people
   <chr>    <chr>                <chr>       <dbl>
 1 Agnostic ""                   $10k           27
 2 Agnostic "$10"                20k            34
 3 Agnostic "$20"                30k            60
 4 Agnostic "$30"                40k            81
 5 Agnostic "$40"                50k            76
 6 Agnostic "$50"                75k           137
 7 Agnostic "$75"                100k          122
 8 Agnostic "$100"               150k          109
 9 Agnostic ">150k"              <NA>           84
10 Agnostic "Don't know/refused" <NA>           96
# ℹ 170 more rows

Piensa ahora como podemos convertir los límites de ingresos a numéricas (eliminando símbolos, letras, etc)

Ejemplo: relig_income

Para ello usaremos el paquete {stringr}, en concreto la función str_remove_all(), a la que le podemos pasar los caracteres que queremos eliminar (fíjate que $ al ser un caracter reservado en R hay que indicárselo con \\$)

relig_tidy$income_inf <-
  str_remove_all(relig_tidy$income_inf, "\\$|>|k")
relig_tidy$income_sup <-
  str_remove_all(relig_tidy$income_sup, "\\$|>|k")

relig_tidy

# A tibble: 180 × 4
   religion income_inf          income_sup people
   <chr>    <chr>               <chr>       <dbl>
 1 Agnostic ""                  10             27
 2 Agnostic "10"                20             34
 3 Agnostic "20"                30             60
 4 Agnostic "30"                40             81
 5 Agnostic "40"                50             76
 6 Agnostic "50"                75            137
 7 Agnostic "75"                100           122
 8 Agnostic "100"               150           109
 9 Agnostic "150"               <NA>           84
10 Agnostic "Don't now/refused" <NA>           96
# ℹ 170 more rows

Ejemplo: relig_income

Fíjate que tenemos "Don't now/refused". ¿Qué deberíamos tener?

Debería ser un dato ausente así que usaremos if_else(): si contiene dicha frase, NA, en caso contrario su valor (consejo: str_detect() para detectar patrones en textos, y evitar tener que escribir toda la palabra sin errores)

relig_tidy$income_inf <-
  if_else(str_detect(relig_tidy$income_inf, "refused"), NA, relig_tidy$income_inf)
relig_tidy$income_sup <-
  if_else(str_detect(relig_tidy$income_sup, "refused"), NA, relig_tidy$income_sup)
relig_tidy

# A tibble: 180 × 4
   religion income_inf income_sup people
   <chr>    <chr>      <chr>       <dbl>
 1 Agnostic ""         10             27
 2 Agnostic "10"       20             34
 3 Agnostic "20"       30             60
 4 Agnostic "30"       40             81
 5 Agnostic "40"       50             76
 6 Agnostic "50"       75            137
 7 Agnostic "75"       100           122
 8 Agnostic "100"      150           109
 9 Agnostic "150"      <NA>           84
10 Agnostic  <NA>      <NA>           96
# ℹ 170 more rows

Ejemplo: relig_income

relig_tidy

# A tibble: 180 × 4
   religion income_inf income_sup people
   <chr>    <chr>      <chr>       <dbl>
 1 Agnostic ""         10             27
 2 Agnostic "10"       20             34
 3 Agnostic "20"       30             60
 4 Agnostic "30"       40             81
 5 Agnostic "40"       50             76
 6 Agnostic "50"       75            137
 7 Agnostic "75"       100           122
 8 Agnostic "100"      150           109
 9 Agnostic "150"      <NA>           84
10 Agnostic  <NA>      <NA>           96
# ℹ 170 more rows

En la primera línea, ese "" también debería ser `NA``

relig_tidy$income_inf <-
  if_else(relig_tidy$income_inf == "", NA, relig_tidy$income_inf)
relig_tidy$income_suop <-
  if_else(relig_tidy$income_sup == "", NA, relig_tidy$income_sup)

Ejemplo: relig_income

relig_tidy

# A tibble: 180 × 5
   religion income_inf income_sup people income_suop
   <chr>    <chr>      <chr>       <dbl> <chr>      
 1 Agnostic <NA>       10             27 10         
 2 Agnostic 10         20             34 20         
 3 Agnostic 20         30             60 30         
 4 Agnostic 30         40             81 40         
 5 Agnostic 40         50             76 50         
 6 Agnostic 50         75            137 75         
 7 Agnostic 75         100           122 100        
 8 Agnostic 100        150           109 150        
 9 Agnostic 150        <NA>           84 <NA>       
10 Agnostic <NA>       <NA>           96 <NA>       
# ℹ 170 more rows

Además si te fijas los números son en realidad caracteres, así que vamos a convertirlos a números

Ejemplo: relig_income

Además si te fijas los números son en realidad caracteres, así que vamos a convertirlos a números

relig_tidy$income_inf <- as.numeric(relig_tidy$income_inf)
relig_tidy$income_sup <- as.numeric(relig_tidy$income_sup)
relig_tidy

# A tibble: 180 × 5
   religion income_inf income_sup people income_suop
   <chr>         <dbl>      <dbl>  <dbl> <chr>      
 1 Agnostic         NA         10     27 10         
 2 Agnostic         10         20     34 20         
 3 Agnostic         20         30     60 30         
 4 Agnostic         30         40     81 40         
 5 Agnostic         40         50     76 50         
 6 Agnostic         50         75    137 75         
 7 Agnostic         75        100    122 100        
 8 Agnostic        100        150    109 150        
 9 Agnostic        150         NA     84 <NA>       
10 Agnostic         NA         NA     96 <NA>       
# ℹ 170 more rows

Ejemplo: relig_income

¿Se te ocurre alguna forma de «cuantificar numéricamente» los valores ausentes que tenemos en este caso?

Si te fijas en realidad cuando hay ausente en el límite inferior en realidad podríamos poner un 0 (nadie puede ganar menos de eso) y cuando lo tenemos en el límite superior sería Inf

relig_tidy$income_inf <-
  if_else(is.na(relig_tidy$income_inf), 0, relig_tidy$income_inf)
relig_tidy$income_sup <-
  if_else(is.na(relig_tidy$income_sup), Inf, relig_tidy$income_sup)
relig_tidy

# A tibble: 180 × 5
   religion income_inf income_sup people income_suop
   <chr>         <dbl>      <dbl>  <dbl> <chr>      
 1 Agnostic          0         10     27 10         
 2 Agnostic         10         20     34 20         
 3 Agnostic         20         30     60 30         
 4 Agnostic         30         40     81 40         
 5 Agnostic         40         50     76 50         
 6 Agnostic         50         75    137 75         
 7 Agnostic         75        100    122 100        
 8 Agnostic        100        150    109 150        
 9 Agnostic        150        Inf     84 <NA>       
10 Agnostic          0        Inf     96 <NA>       
# ℹ 170 more rows
…
billboard |>
  pivot_longer(cols = "wk1":"wk76",
               names_to = "week",
               names_prefix = "wk",
               values_to = "position",
               values_drop_na = TRUE)

🐣 Caso práctico III

En el paquete {tidyr} contamos con el dataset who2 (dataset de la Organización Mundial de la Salud). Intenta responder a las preguntas planteadas en el workbook.

who2

# A tibble: 7,240 × 58
   country      year sp_m_014 sp_m_1524 sp_m_2534 sp_m_3544 sp_m_4554 sp_m_5564
   <chr>       <dbl>    <dbl>     <dbl>     <dbl>     <dbl>     <dbl>     <dbl>
 1 Afghanistan  1980       NA        NA        NA        NA        NA        NA
 2 Afghanistan  1981       NA        NA        NA        NA        NA        NA
 3 Afghanistan  1982       NA        NA        NA        NA        NA        NA
 4 Afghanistan  1983       NA        NA        NA        NA        NA        NA
 5 Afghanistan  1984       NA        NA        NA        NA        NA        NA
 6 Afghanistan  1985       NA        NA        NA        NA        NA        NA
 7 Afghanistan  1986       NA        NA        NA        NA        NA        NA
 8 Afghanistan  1987       NA        NA        NA        NA        NA        NA
 9 Afghanistan  1988       NA        NA        NA        NA        NA        NA
10 Afghanistan  1989       NA        NA        NA        NA        NA        NA
# ℹ 7,230 more rows
# ℹ 50 more variables: sp_m_65 <dbl>, sp_f_014 <dbl>, sp_f_1524 <dbl>,
#   sp_f_2534 <dbl>, sp_f_3544 <dbl>, sp_f_4554 <dbl>, sp_f_5564 <dbl>,
#   sp_f_65 <dbl>, sn_m_014 <dbl>, sn_m_1524 <dbl>, sn_m_2534 <dbl>,
#   sn_m_3544 <dbl>, sn_m_4554 <dbl>, sn_m_5564 <dbl>, sn_m_65 <dbl>,
#   sn_f_014 <dbl>, sn_f_1524 <dbl>, sn_f_2534 <dbl>, sn_f_3544 <dbl>,
#   sn_f_4554 <dbl>, sn_f_5564 <dbl>, sn_f_65 <dbl>, ep_m_014 <dbl>, …
…
Sin tendencia

Paso 3: ¿cómo deberíamos de transformar los datos para poder pintar todas las series a la vez? Hazte un borrador de cómo sería el código de ggplot para dibujarlo.

La idea es que si tenemos \(p\) series, en lugar de tener \(p\) variables distintas, tengamos una serie «debajo de» otra. Por ejemplo, vamos a definir la primera y pongamos debajo al segunda otra.

n <- 1000
datos <- tibble("t" = 1:n, "X_t" = rnorm(n, mean = 0, sd = 0.5), "sd" = "sd_0.5")
datos_tidy <- 
  rbind(datos, tibble("t" = 1:n, "X_t" = rnorm(n, mean = 0, sd = 1), "sd" = "sd_1"))
datos_tidy

# A tibble: 2,000 × 3
       t    X_t sd    
   <int>  <dbl> <chr> 
 1     1  0.300 sd_0.5
 2     2  0.263 sd_0.5
 3     3  0.829 sd_0.5
 4     4 -0.597 sd_0.5
 5     5 -0.311 sd_0.5
 6     6  0.133 sd_0.5
 7     7  0.337 sd_0.5
 8     8 -0.878 sd_0.5
 9     9 -0.335 sd_0.5
10    10  0.946 sd_0.5
# ℹ 1,990 more rows
…
ts_error <- function(n, t = 1:n, sd_vec = 1) {
  
  datos_tidy <- tibble()
  for (i in 1:length(sd_vec)) {
    datos_tidy <- 
      rbind(datos_tidy,
            tibble("t" = t, "sd" = glue::glue("sd_{sd_vec[i]}"),
                   "X_t" = rnorm(n, mean = 0, sd = sd_vec[i])))
  }
  return(datos_tidy)
}
ts_error(n = 100, sd = c(0.5, 2))

# A tibble: 200 × 3
       t sd         X_t
   <int> <glue>   <dbl>
 1     1 sd_0.5  0.0178
 2     2 sd_0.5  0.450 
 3     3 sd_0.5 -0.987 
 4     4 sd_0.5 -0.251 
 5     5 sd_0.5 -0.0661
 6     6 sd_0.5 -0.508 
 7     7 sd_0.5 -0.148 
 8     8 sd_0.5  0.0904
 9     9 sd_0.5 -0.0447
10    10 sd_0.5  0.920 
# ℹ 190 more rows
…
Ejemplo en R

Vamos a trabajar con el paquete {tsibbledata} que nos permite usar varios ejemplos de series temporales. En concreto vamos a usar el dataset global_economy que contiene distintas estadísticas económicas para distintos años países, y nos vamos a centrar solo en datos de exportaciones de Algeria

library(tsibbledata)
library(tsibble)
algeria_economy <-
  global_economy |>
  filter(Country == "Algeria") |>
  # solo hay un país, eliminamos key
  update_tsibble(key = NULL)
algeria_economy

# A tsibble: 58 x 9 [1Y]
   Country Code   Year         GDP Growth   CPI Imports Exports Population
   <fct>   <fct> <dbl>       <dbl>  <dbl> <dbl>   <dbl>   <dbl>      <dbl>
 1 Algeria DZA    1960 2723648552.  NA    NA       67.1    39.0   11124888
 2 Algeria DZA    1961 2434776646. -13.6  NA       67.5    46.2   11404859
 3 Algeria DZA    1962 2001468868. -19.7  NA       20.8    19.8   11690153
 4 Algeria DZA    1963 2703014867.  34.3  NA       36.8    24.7   11985136
 5 Algeria DZA    1964 2909351793.   5.84 NA       29.4    25.1   12295970
 6 Algeria DZA    1965 3136258897.   6.21 NA       25.8    22.6   12626952
 7 Algeria DZA    1966 3039834559.  -4.80 NA       24.7    26.0   12980267
 8 Algeria DZA    1967 3370843066.   9.45 NA       21.6    23.4   13354197
 9 Algeria DZA    1968 3852115817.  10.8  NA       24.2    23.1   13744387
10 Algeria DZA    1969 4257218772.   8.43  2.57    28.1    23.8   14144438
# ℹ 48 more rows
…
# A mable: 1 x 1
  alisado_simple
         <model>
1   <ETS(A,N,N)>

Ejemplo en R

Se guarda en un objeto de tipo modelo (mdl_df o mable): para poder ver la info en un formato tabulado basta hacer augment(): .fitted guarda las estimaciones, .resid residuales estimados (en este caso coincide con .innov)

fit_algeria |>
  augment()

# A tsibble: 58 x 6 [1Y]
# Key:       .model [1]
   .model          Year Exports .fitted  .resid  .innov
   <chr>          <dbl>   <dbl>   <dbl>   <dbl>   <dbl>
 1 alisado_simple  1960    39.0    39.5  -0.496  -0.496
 2 alisado_simple  1961    46.2    39.1   7.12    7.12 
 3 alisado_simple  1962    19.8    45.1 -25.3   -25.3  
 4 alisado_simple  1963    24.7    23.8   0.841   0.841
 5 alisado_simple  1964    25.1    24.6   0.534   0.534
 6 alisado_simple  1965    22.6    25.0  -2.39   -2.39 
 7 alisado_simple  1966    26.0    23.0   3.00    3.00 
 8 alisado_simple  1967    23.4    25.5  -2.07   -2.07 
 9 alisado_simple  1968    23.1    23.8  -0.630  -0.630
10 alisado_simple  1969    23.8    23.2   0.552   0.552
# ℹ 48 more rows
…
