Joins e importación: como combinar, exportar e importar en R
…
# datos 2019
mun_data <- read_csv(file = "./datos/municipios.csv")

Rows: 8212 Columns: 8
── Column specification ────────────────────────────────────────────────────────
Delimiter: ","
chr (8): codauto, ine.ccaa.name, cpro, ine.prov.name, cmun, name, LAU_CODE, ...

ℹ Use `spec()` to retrieve the full column specification for this data.
ℹ Specify the column types or set `show_col_types = FALSE` to quiet this message.

mun_data

# A tibble: 8,212 × 8
   codauto ine.ccaa.name cpro  ine.prov.name cmun  name      LAU_CODE codigo_ine
   <chr>   <chr>         <chr> <chr>         <chr> <chr>     <chr>    <chr>     
 1 01      Andalucía     04    Almería       001   Abla      04001    04001     
 2 01      Andalucía     04    Almería       002   Abrucena  04002    04002     
 3 01      Andalucía     04    Almería       003   Adra      04003    04003     
 4 01      Andalucía     04    Almería       004   Albanchez 04004    04004     
 5 01      Andalucía     04    Almería       005   Alboloduy 04005    04005     
 6 01      Andalucía     04    Almería       006   Albox     04006    04006     
 7 01      Andalucía     04    Almería       007   Alcolea   04007    04007     
 8 01      Andalucía     04    Almería       008   Alcóntar  04008    04008     
 9 01      Andalucía     04    Almería       009   Alcudia … 04009    04009     
10 01      Andalucía     04    Almería       010   Alhabia   04010    04010     
# ℹ 8,202 more rows
…
Rows: 55273 Columns: 7
── Column specification ────────────────────────────────────────────────────────
Delimiter: ","
chr (2): Unidad, codigo_ine
dbl (5): 2019, 2018, 2017, 2016, 2015

ℹ Use `spec()` to retrieve the full column specification for this data.
ℹ Specify the column types or set `show_col_types = FALSE` to quiet this message.

renta_mun

# A tibble: 55,273 × 7
   Unidad                          `2019` `2018` `2017` `2016` `2015` codigo_ine
   <chr>                            <dbl>  <dbl>  <dbl>  <dbl>  <dbl> <chr>     
 1 44001 Ababuj                        NA     NA     NA     NA     NA 44001     
 2 4400101 Ababuj distrito 01          NA     NA     NA     NA     NA 4400101   
 3 4400101001 Ababuj sección 01001     NA     NA     NA     NA     NA 4400101001
 4 40001 Abades                     11429  10731  10314   9816   9904 40001     
 5 4000101 Abades distrito 01       11429  10731  10314   9816   9904 4000101   
 6 4000101001 Abades sección 01001  11429  10731  10314   9816   9904 4000101001
 7 10001 Abadía                      8954   8589   8207   7671   8416 10001     
 8 1000101 Abadía distrito 01        8954   8589   8207   7671   8416 1000101   
 9 1000101001 Abadía sección 01001   8954   8589   8207   7671   8416 1000101001
10 27001 Abadín                     10791  10258   9762   9478   9116 27001     
# ℹ 55,263 more rows
…
Datos desde Google Drive

Datos desde API’s: aemet, catastro, censo, spotify, etc.

4.1 Formatos nativos de R

Los ficheros más sencillos para importar a R (y que suelen ocupar menos espacio en disco) son sus propias extensiones nativas: ficheros en formatos .RData, .rda y .rds. Para cargar los primeros basta con utilizar la función load() proporcionándole la ruta del fichero.

Archivos RData: vamos a importar el archivo world_bank_pop.RData que incluye la tabla world_bank_pop

load("./datos/world_bank_pop.RData")
world_bank_pop

# A tibble: 1,064 × 20
   country indicator      `2000`  `2001`  `2002`  `2003`  `2004`  `2005`  `2006`
   <chr>   <chr>           <dbl>   <dbl>   <dbl>   <dbl>   <dbl>   <dbl>   <dbl>
 1 ABW     SP.URB.TOTL    4.16e4 4.20e+4 4.22e+4 4.23e+4 4.23e+4 4.24e+4 4.26e+4
 2 ABW     SP.URB.GROW    1.66e0 9.56e-1 4.01e-1 1.97e-1 9.46e-2 1.94e-1 3.67e-1
 3 ABW     SP.POP.TOTL    8.91e4 9.07e+4 9.18e+4 9.27e+4 9.35e+4 9.45e+4 9.56e+4
 4 ABW     SP.POP.GROW    2.54e0 1.77e+0 1.19e+0 9.97e-1 9.01e-1 1.00e+0 1.18e+0
 5 AFE     SP.URB.TOTL    1.16e8 1.20e+8 1.24e+8 1.29e+8 1.34e+8 1.39e+8 1.44e+8
 6 AFE     SP.URB.GROW    3.60e0 3.66e+0 3.72e+0 3.71e+0 3.74e+0 3.81e+0 3.81e+0
 7 AFE     SP.POP.TOTL    4.02e8 4.12e+8 4.23e+8 4.34e+8 4.45e+8 4.57e+8 4.70e+8
 8 AFE     SP.POP.GROW    2.58e0 2.59e+0 2.61e+0 2.62e+0 2.64e+0 2.67e+0 2.70e+0
 9 AFG     SP.URB.TOTL    4.31e6 4.36e+6 4.67e+6 5.06e+6 5.30e+6 5.54e+6 5.83e+6
10 AFG     SP.URB.GROW    1.86e0 1.15e+0 6.86e+0 7.95e+0 4.59e+0 4.47e+0 5.03e+0
# ℹ 1,054 more rows
# ℹ 11 more variables: `2007` <dbl>, `2008` <dbl>, `2009` <dbl>, `2010` <dbl>,
#   `2011` <dbl>, `2012` <dbl>, `2013` <dbl>, `2014` <dbl>, `2015` <dbl>,
#   `2016` <dbl>, `2017` <dbl>

Archivos .rda: vamos a importar el dataset airquality desde airquality.rda

load("./datos/airquality.rda")
airquality |> as_tibble()

# A tibble: 153 × 6
   Ozone Solar.R  Wind  Temp Month   Day
   <int>   <int> <dbl> <int> <int> <int>
 1    41     190   7.4    67     5     1
 2    36     118   8      72     5     2
 3    12     149  12.6    74     5     3
 4    18     313  11.5    62     5     4
 5    NA      NA  14.3    56     5     5
 6    28      NA  14.9    66     5     6
 7    23     299   8.6    65     5     7
 8    19      99  13.8    59     5     8
 9     8      19  20.1    61     5     9
10    NA     194   8.6    69     5    10
# ℹ 143 more rows

Ten en cuenta que los archivos cargados con load() se cargan automáticamente en el entorno (con el nombre guardado originalmente), y no sólo se pueden cargar conjuntos de datos: load() nos permite cargar múltiples objetos (no sólo datos tabulares).

Los archivos nativos .rda y .RData son una forma adecuada de guardar el entorno.

load(file = "./datos/multiple_objects.rda")

Archivos .rds: para este tipo debemos utilizar readRDS(), y necesitamos incorporar un argumento file con la ruta. En este caso vamos a importar datos de cáncer de pulmón del North Central Cancer Treatment Group. Observe que ahora los archivos .rds incorporar solo una tabla, no un objeto en general

lung_cancer <-
  readRDS(file = "./datos/NCCTG_lung_cancer.rds") |>
  as_tibble()
lung_cancer

# A tibble: 228 × 10
    inst  time status   age   sex ph.ecog ph.karno pat.karno meal.cal wt.loss
   <dbl> <dbl>  <dbl> <dbl> <dbl>   <dbl>    <dbl>     <dbl>    <dbl>   <dbl>
 1     3   306      2    74     1       1       90       100     1175      NA
 2     3   455      2    68     1       0       90        90     1225      15
 3     3  1010      1    56     1       0       90        90       NA      15
 4     5   210      2    57     1       1       90        60     1150      11
 5     1   883      2    60     1       0      100        90       NA       0
 6    12  1022      1    74     1       1       50        80      513       0
 7     7   310      2    68     2       2       70        60      384      10
 8    11   361      2    71     2       2       60        80      538       1
 9     1   218      2    53     1       1       70        80      825      16
10     7   166      2    61     1       2       70        70      271      34
# ℹ 218 more rows
…
También podemos cargar un Excel con varias hojas: para indicar la hoja (ya sea por su nombre o por su número) utilizaremos el argumento sheet = ....

mtcars <- read_xlsx(path = "./datos/datasets.xlsx", sheet = "mtcars")
mtcars

# A tibble: 32 × 11
     mpg   cyl  disp    hp  drat    wt  qsec    vs    am  gear  carb
   <dbl> <dbl> <dbl> <dbl> <dbl> <dbl> <dbl> <dbl> <dbl> <dbl> <dbl>
 1  21       6  160    110  3.9   2.62  16.5     0     1     4     4
 2  21       6  160    110  3.9   2.88  17.0     0     1     4     4
 3  22.8     4  108     93  3.85  2.32  18.6     1     1     4     1
 4  21.4     6  258    110  3.08  3.22  19.4     1     0     3     1
 5  18.7     8  360    175  3.15  3.44  17.0     0     0     3     2
 6  18.1     6  225    105  2.76  3.46  20.2     1     0     3     1
 7  14.3     8  360    245  3.21  3.57  15.8     0     0     3     4
 8  24.4     4  147.    62  3.69  3.19  20       1     0     4     2
 9  22.8     4  141.    95  3.92  3.15  22.9     1     0     4     2
10  19.2     6  168.   123  3.92  3.44  18.3     1     0     4     4
# ℹ 22 more rows
…
covid_data <-
  read_csv(file = "https://cnecovid.isciii.es/covid19/resources/casos_hosp_uci_def_sexo_edad_provres.csv")
covid_data

Rows: 500 Columns: 8
── Column specification ────────────────────────────────────────────────────────
Delimiter: ","
chr  (3): provincia_iso, sexo, grupo_edad
dbl  (4): num_casos, num_hosp, num_uci, num_def
date (1): fecha

ℹ Use `spec()` to retrieve the full column specification for this data.
ℹ Specify the column types or set `show_col_types = FALSE` to quiet this message.

# A tibble: 500 × 8
   provincia_iso sexo  grupo_edad fecha      num_casos num_hosp num_uci num_def
   <chr>         <chr> <chr>      <date>         <dbl>    <dbl>   <dbl>   <dbl>
 1 A             H     0-9        2020-01-01         0        0       0       0
 2 A             H     10-19      2020-01-01         0        0       0       0
 3 A             H     20-29      2020-01-01         0        0       0       0
 4 A             H     30-39      2020-01-01         0        0       0       0
 5 A             H     40-49      2020-01-01         0        0       0       0
 6 A             H     50-59      2020-01-01         0        0       0       0
 7 A             H     60-69      2020-01-01         0        0       0       0
 8 A             H     70-79      2020-01-01         0        0       0       0
 9 A             H     80+        2020-01-01         0        0       0       0
10 A             H     NC         2020-01-01         0        0       0       0
# ℹ 490 more rows
…
Una vez tengamos la clave API la registramos en nuestro RStudio para poder utilizarla en el futuro.

library(climaemet)

# Api key
apikey <- "eyJhbGciOiJIUzI1NiJ9.eyJzdWIiOiJqYXZhbHYwOUB1Y20uZXMiLCJqdGkiOiI4YTU1ODUxMS01MTE3LTQ4MTYtYmM4OS1hYmVkNDhiODBkYzkiLCJpc3MiOiJBRU1FVCIsImlhdCI6MTY2NjQ2OTcxNSwidXNlcklkIjoiOGE1NTg1MTEtNTExNy00ODE2LWJjODktYWJlZDQ4YjgwZGM5Iiwicm9sZSI6IiJ9.HEMR77lZy2ASjmOxJa8ppx2J8Za1IViurMX3p1reVBU"

aemet_api_key(apikey, install = TRUE)

Con este paquete podemos hacer una búsqueda de estaciones para conocer tanto su código postal como su código identificador dentro de la red AEMET

stations <- aemet_stations()
stations

# A tibble: 947 × 7
   indicativo indsinop nombre                 provincia altitud longitud latitud
   <chr>      <chr>    <chr>                  <chr>       <dbl>    <dbl>   <dbl>
 1 B013X      "08304"  ESCORCA, LLUC          ILLES BA…     490     2.89    39.8
 2 B051A      "08316"  SÓLLER, PUERTO         ILLES BA…       5     2.69    39.8
 3 B087X      ""       BANYALBUFAR            ILLES BA…      60     2.51    39.7
 4 B103B      "99103"  ANDRATX - SANT ELM     ILLES BA…      52     2.37    39.6
 5 B158X      ""       CALVIÀ, ES CAPDELLÀ    ILLES BA…      50     2.47    39.6
 6 B228       "08301"  PALMA, PUERTO          ILLES BA…       3     2.63    39.6
 7 B236C      ""       PALMA, UNIVERSIDAD     ILLES BA…      95     2.64    39.6
 8 B248       "08303"  SIERRA DE ALFABIA, BU… ILLES BA…    1030     2.71    39.7
 9 B275E      "08302"  SON BONET, AEROPUERTO  BALEARES       49     2.71    39.6
10 B278       "08306"  PALMA DE MALLORCA, AE… ILLES BA…       8     2.74    39.6
# ℹ 937 more rows
…
Por ejemplo vamos a descargarnos los datos censales (get_decennial()) a nivel estado (geography = "state") de la población (variable variables = "P001001") para el año 2010 (ver variables en tidycensus::load_variables())

total_population_10 <-
  get_decennial(geography = "state", 
  variables = "P001001",
  year = 2010)

Getting data from the 2010 decennial Census

Using Census Summary File 1

total_population_10

# A tibble: 52 × 4
   GEOID NAME        variable    value
   <chr> <chr>       <chr>       <dbl>
 1 01    Alabama     P001001   4779736
 2 02    Alaska      P001001    710231
 3 04    Arizona     P001001   6392017
 4 05    Arkansas    P001001   2915918
 5 06    California  P001001  37253956
 6 22    Louisiana   P001001   4533372
 7 21    Kentucky    P001001   4339367
 8 08    Colorado    P001001   5029196
 9 09    Connecticut P001001   3574097
10 10    Delaware    P001001    897934
# ℹ 42 more rows
…
[1] 0.3515323 3.5592939

map_dbl(x, 3)

[1] 0.3515323 3.5592939

7.1.3 pluck()

También podemos hacer uso de pluck() para acceder al i-th objeto de la lista.

lista <- list("a" = starwars, "b" = billboard)
lista |> pluck(1)

# A tibble: 87 × 14
   name     height  mass hair_color skin_color eye_color birth_year sex   gender
   <chr>     <int> <dbl> <chr>      <chr>      <chr>          <dbl> <chr> <chr> 
 1 Luke Sk…    172    77 blond      fair       blue            19   male  mascu…
 2 C-3PO       167    75 <NA>       gold       yellow         112   none  mascu…
 3 R2-D2        96    32 <NA>       white, bl… red             33   none  mascu…
 4 Darth V…    202   136 none       white      yellow          41.9 male  mascu…
 5 Leia Or…    150    49 brown      light      brown           19   fema… femin…
 6 Owen La…    178   120 brown, gr… light      blue            52   male  mascu…
 7 Beru Wh…    165    75 brown      light      blue            47   fema… femin…
 8 R5-D4        97    32 <NA>       white, red red             NA   none  mascu…
 9 Biggs D…    183    84 black      light      brown           24   male  mascu…
10 Obi-Wan…    182    77 auburn, w… fair       blue-gray       57   male  mascu…
# ℹ 77 more rows
# ℹ 5 more variables: homeworld <chr>, species <chr>, films <list>,
#   vehicles <list>, starships <list>
…
Rows: 100 Columns: 8
── Column specification ────────────────────────────────────────────────────────
Delimiter: ","
chr (3): Genero, EstadoCivil, EstadoSalud
dbl (5): ID, Edad, TiempoEspera, GradoSatisfaccion, NumeroVisitas

ℹ Use `spec()` to retrieve the full column specification for this data.
ℹ Specify the column types or set `show_col_types = FALSE` to quiet this message.

datos

# A tibble: 100 × 8
      id  edad genero    estado_civil tiempo_espera grado_satisfaccion
   <dbl> <dbl> <chr>     <chr>                <dbl>              <dbl>
 1     1    60 Masculino Casado                  28                  8
 2     2    44 Femenino  Soltero                 22                  8
 3     3    43 Masculino Soltero                  8                  9
 4     4    32 Masculino Soltero                 21                  8
 5     5    66 Masculino Divorciado               7                 10
 6     6    43 Masculino Divorciado              20                  8
 7     7    54 Masculino Casado                  18                  6
 8     8    55 Masculino Soltero                 29                  6
 9     9    56 Masculino Viudo                   17                  9
10    10    34 Femenino  Casado                  34                  8
# ℹ 90 more rows
# ℹ 2 more variables: numero_visitas <dbl>, estado_salud <chr>
…
