Aprendizaje supervisado: modelos lineales
…
anscombe_y <- 
  anscombe_tb |>
  pivot_longer(cols = y1:y4, names_to = "dataset", values_to = "y",
               names_prefix = "y") |>
  select(-contains("x"))

anscombe_tidy <-
  anscombe_x |>
  mutate("y" = anscombe_y$y)
anscombe_tidy

# A tibble: 44 × 3
   dataset     x     y
   <chr>   <dbl> <dbl>
 1 1          10  8.04
 2 2          10  9.14
 3 3          10  7.46
 4 4           8  6.58
 5 1           8  6.95
 6 2           8  8.14
 7 3           8  6.77
 8 4           8  5.76
 9 1          13  7.58
10 2          13  8.74
# ℹ 34 more rows
…
Rows: 100 Columns: 8
── Column specification ────────────────────────────────────────────────────────
Delimiter: ","
chr (3): Genero, EstadoCivil, EstadoSalud
dbl (5): ID, Edad, TiempoEspera, GradoSatisfaccion, NumeroVisitas

ℹ Use `spec()` to retrieve the full column specification for this data.
ℹ Specify the column types or set `show_col_types = FALSE` to quiet this message.

datos

# A tibble: 100 × 8
      id  edad genero    estado_civil tiempo_espera grado_satisfaccion
   <dbl> <dbl> <fct>     <fct>                <dbl>              <dbl>
 1     1    60 Masculino Casado                  28                  8
 2     2    44 Femenino  Soltero                 22                  8
 3     3    43 Masculino Soltero                  8                  9
 4     4    32 Masculino Soltero                 21                  8
 5     5    66 Masculino Divorciado               7                 10
 6     6    43 Masculino Divorciado              20                  8
 7     7    54 Masculino Casado                  18                  6
 8     8    55 Masculino Soltero                 29                  6
 9     9    56 Masculino Viudo                   17                  9
10    10    34 Femenino  Casado                  34                  8
# ℹ 90 more rows
# ℹ 2 more variables: numero_visitas <dbl>, estado_salud <chr>
…
datos <- read_csv(file = "./datos/fumadores.csv")

Rows: 96 Columns: 3
── Column specification ────────────────────────────────────────────────────────
Delimiter: ","
chr (2): fumador, estado
dbl (1): id

ℹ Use `spec()` to retrieve the full column specification for this data.
ℹ Specify the column types or set `show_col_types = FALSE` to quiet this message.

datos

# A tibble: 96 × 3
      id fumador estado    
   <dbl> <chr>   <chr>     
 1     1 sí      bronquitis
 2     2 sí      bronquitis
 3     3 sí      bronquitis
 4     4 sí      bronquitis
 5     5 sí      bronquitis
 6     6 sí      bronquitis
 7     7 sí      bronquitis
 8     8 sí      bronquitis
 9     9 sí      bronquitis
10    10 sí      bronquitis
# ℹ 86 more rows
…
Rows: 100 Columns: 10
── Column specification ────────────────────────────────────────────────────────
Delimiter: ","
chr (3): Genero, UsoDrogasRecreativas, TipoDrogas
dbl (7): ID, Edad, Ansiedad, Depresion, SesionesTerapia, ActividadFisica, Ho...

ℹ Use `spec()` to retrieve the full column specification for this data.
ℹ Specify the column types or set `show_col_types = FALSE` to quiet this message.

datos

# A tibble: 100 × 10
      id  edad genero    ansiedad depresion sesiones_terapia actividad_fisica
   <dbl> <dbl> <chr>        <dbl>     <dbl>            <dbl>            <dbl>
 1     1    48 Masculino        5         5               60                6
 2     2    32 Masculino        5         6               30               NA
 3     3    68 Masculino        9        NA               32                7
 4     4    31 NoBinario        9        NA              100                5
 5     5    20 Femenino         9        NA               27                6
 6     6    59 Masculino        7         5               38                7
 7     7    67 Femenino        10        NA               49                7
 8     8    NA Femenino         6         6               55                7
 9     9    54 Femenino         6         6               55                6
10    10    69 Masculino        4         6               32                7
# ℹ 90 more rows
# ℹ 3 more variables: horas_sueno <dbl>, uso_drogas_recreativas <chr>,
#   tipo_drogas <chr>
…
New names:
Rows: 1237 Columns: 7
── Column specification
──────────────────────────────────────────────────────── Delimiter: "," chr
(1): state dbl (6): ...1, year, district, turnout, CVAP, candidate
ℹ Use `spec()` to retrieve the full column specification for this data. ℹ
Specify the column types or set `show_col_types = FALSE` to quiet this message.
• `` -> `...1`

datos

# A tibble: 1,237 × 7
      x1  year state district turnout   cvap candidate
   <dbl> <dbl> <chr>    <dbl>   <dbl>  <dbl>     <dbl>
 1     1  2008 AK           0   0.710 0.0350         0
 2     2  2010 AK           0   0.448 0.0323         0
 3     3  2010 AK           1   0.448 0.0323         0
 4     4  2008 AK           1   0.710 0.0350         0
 5     5  2006 AK           1   0.439 0.0318         0
 6     6  2010 AL           0   0.397 0.256          0
 7     7  2008 AL           0   0.626 0.253          1
 8     8  2010 AL           1   0.374 0.261          0
 9     9  2006 AL           1   0.266 0.261          0
10    10  2008 AL           1   0.620 0.261          0
# ℹ 1,227 more rows
…
datos <-
  read_csv(file = "./datos/beer_goggles_effect.csv") 

Rows: 48 Columns: 3
── Column specification ────────────────────────────────────────────────────────
Delimiter: ","
chr (2): gender, alcohol
dbl (1): attractiveness

ℹ Use `spec()` to retrieve the full column specification for this data.
ℹ Specify the column types or set `show_col_types = FALSE` to quiet this message.

datos

# A tibble: 48 × 3
   gender alcohol attractiveness
   <chr>  <chr>            <dbl>
 1 Female None              67.4
 2 Female None              69.9
 3 Female None              61.0
 4 Female None              58.5
 5 Female None              59.7
 6 Female None              53.4
 7 Female None              60.6
 8 Female None              56.4
 9 Female 2 Pints           69.7
10 Female 2 Pints           66.3
# ℹ 38 more rows
…
