SOFTWARE II
…
Ejemplo de entrega

library(dplyr)
starwars

# A tibble: 87 × 14
   name     height  mass hair_color skin_color eye_color birth_year sex   gender
   <chr>     <int> <dbl> <chr>      <chr>      <chr>          <dbl> <chr> <chr> 
 1 Luke Sk…    172    77 blond      fair       blue            19   male  mascu…
 2 C-3PO       167    75 <NA>       gold       yellow         112   none  mascu…
 3 R2-D2        96    32 <NA>       white, bl… red             33   none  mascu…
 4 Darth V…    202   136 none       white      yellow          41.9 male  mascu…
 5 Leia Or…    150    49 brown      light      brown           19   fema… femin…
 6 Owen La…    178   120 brown, gr… light      blue            52   male  mascu…
 7 Beru Wh…    165    75 brown      light      blue            47   fema… femin…
 8 R5-D4        97    32 <NA>       white, red red             NA   none  mascu…
 9 Biggs D…    183    84 black      light      brown           24   male  mascu…
10 Obi-Wan…    182    77 auburn, w… fair       blue-gray       57   male  mascu…
# ℹ 77 more rows
# ℹ 5 more variables: homeworld <chr>, species <chr>, films <list>,
#   vehicles <list>, starships <list>
…
No lo es ya que en realidad solo deberíamos tener una variable de ingresos y la tenemos dividida en 11: todas ellas es la misma variable solo que adopta un valor diferente. ¿Cómo convertirla a tidy data?

Ejemplo: relig_income

La idea es pivotar todas las columnas de ingresos para que acaben en una sola columna llamada income, y los valores (el número de personas) en otra llamada people (por ejemplo). La tabla la haremos más larga y menos ancha así que…

relig_tidy <-
  relig_income |>
  pivot_longer(cols = "<$10k":"Don't know/refused", names_to = "income",
               values_to = "people")
relig_tidy 

# A tibble: 180 × 3
   religion income             people
   <chr>    <chr>               <dbl>
 1 Agnostic <$10k                  27
 2 Agnostic $10-20k                34
 3 Agnostic $20-30k                60
 4 Agnostic $30-40k                81
 5 Agnostic $40-50k                76
 6 Agnostic $50-75k               137
 7 Agnostic $75-100k              122
 8 Agnostic $100-150k             109
 9 Agnostic >150k                  84
10 Agnostic Don't know/refused     96
# ℹ 170 more rows

Ejemplo: relig_income

Vamos a hilar más fino: ahora mismo en la variable income en realidad tenemos dos valores, el límite inferior y el superior de la renta. Vamos a separar dicha variable e ingresos en dos, llamadas income_inf y income_sup

relig_tidy 

# A tibble: 180 × 3
   religion income             people
   <chr>    <chr>               <dbl>
 1 Agnostic <$10k                  27
 2 Agnostic $10-20k                34
 3 Agnostic $20-30k                60
 4 Agnostic $30-40k                81
 5 Agnostic $40-50k                76
 6 Agnostic $50-75k               137
 7 Agnostic $75-100k              122
 8 Agnostic $100-150k             109
 9 Agnostic >150k                  84
10 Agnostic Don't know/refused     96
# ℹ 170 more rows

Ejemplo: relig_income

Vamos a hilar más fino: ahora mismo en la variable income en realidad tenemos dos valores, el límite inferior y el superior de la renta. Vamos a separar dicha variable e ingresos en dos, llamadas income_inf y income_sup

relig_tidy |>
  # Separamos por -
  separate(income, into = c("income_inf", "income_sup"), sep = "-")

# A tibble: 180 × 4
   religion income_inf         income_sup people
   <chr>    <chr>              <chr>       <dbl>
 1 Agnostic <$10k              <NA>           27
 2 Agnostic $10                20k            34
 3 Agnostic $20                30k            60
 4 Agnostic $30                40k            81
 5 Agnostic $40                50k            76
 6 Agnostic $50                75k           137
 7 Agnostic $75                100k          122
 8 Agnostic $100               150k          109
 9 Agnostic >150k              <NA>           84
10 Agnostic Don't know/refused <NA>           96
# ℹ 170 more rows

¿Está ya bien? Fíjate bien…

Ejemplo: relig_income

relig_tidy |>
  # Separamos por -
  separate(income, into = c("income_inf", "income_sup"), sep = "-")

# A tibble: 180 × 4
   religion income_inf         income_sup people
   <chr>    <chr>              <chr>       <dbl>
 1 Agnostic <$10k              <NA>           27
 2 Agnostic $10                20k            34
 3 Agnostic $20                30k            60
 4 Agnostic $30                40k            81
 5 Agnostic $40                50k            76
 6 Agnostic $50                75k           137
 7 Agnostic $75                100k          122
 8 Agnostic $100               150k          109
 9 Agnostic >150k              <NA>           84
10 Agnostic Don't know/refused <NA>           96
# ℹ 170 more rows

Si te fijas la primera columna el "$10k" debería ser una cota superior, no inferior. ¿Cómo indicarle que separe bien ese caso?

Ejemplo: relig_income

Le indicaremos que separe si encuentra "-" o "<" (usamos | para separar ambas opciones)

relig_tidy |>
  # Separamos por -
  separate(income, into = c("income_inf", "income_sup"), sep = "-|<")

# A tibble: 180 × 4
   religion income_inf           income_sup people
   <chr>    <chr>                <chr>       <dbl>
 1 Agnostic ""                   $10k           27
 2 Agnostic "$10"                20k            34
 3 Agnostic "$20"                30k            60
 4 Agnostic "$30"                40k            81
 5 Agnostic "$40"                50k            76
 6 Agnostic "$50"                75k           137
 7 Agnostic "$75"                100k          122
 8 Agnostic "$100"               150k          109
 9 Agnostic ">150k"              <NA>           84
10 Agnostic "Don't know/refused" <NA>           96
# ℹ 170 more rows

Ejemplo: relig_income

relig_tidy <-
  relig_tidy |>
  # Separamos por -
  separate(income, into = c("income_inf", "income_sup"), sep = "-|<")
relig_tidy

# A tibble: 180 × 4
   religion income_inf           income_sup people
   <chr>    <chr>                <chr>       <dbl>
 1 Agnostic ""                   $10k           27
 2 Agnostic "$10"                20k            34
 3 Agnostic "$20"                30k            60
 4 Agnostic "$30"                40k            81
 5 Agnostic "$40"                50k            76
 6 Agnostic "$50"                75k           137
 7 Agnostic "$75"                100k          122
 8 Agnostic "$100"               150k          109
 9 Agnostic ">150k"              <NA>           84
10 Agnostic "Don't know/refused" <NA>           96
# ℹ 170 more rows

Piensa ahora como podemos convertir los límites de ingresos a numéricas (eliminando símbolos, letras, etc)

Ejemplo: relig_income

Para ello usaremos el paquete {stringr} que hemos visto antes, en concreto la función str_remove_all() a la que le podemos pasar los caracteres que queremos eliminar (fíjate que $ al ser un caracter reservado en R hay que indicárselo con \\$)

relig_tidy$income_inf <-
  str_remove_all(relig_tidy$income_inf, "\\$|>|k")
relig_tidy$income_sup <-
  str_remove_all(relig_tidy$income_sup, "\\$|>|k")

relig_tidy

# A tibble: 180 × 4
   religion income_inf          income_sup people
   <chr>    <chr>               <chr>       <dbl>
 1 Agnostic ""                  10             27
 2 Agnostic "10"                20             34
 3 Agnostic "20"                30             60
 4 Agnostic "30"                40             81
 5 Agnostic "40"                50             76
 6 Agnostic "50"                75            137
 7 Agnostic "75"                100           122
 8 Agnostic "100"               150           109
 9 Agnostic "150"               <NA>           84
10 Agnostic "Don't now/refused" <NA>           96
# ℹ 170 more rows

Ejemplo: relig_income

Fíjate que tenemos "Don't now/refused". ¿Qué deberíamos tener?

Debería ser un dato ausente así que usaremos if_else(): si contiene dicha frase, NA, en caso contrario su valor (consejo: str_detect() para detectar patrones en textos, y evitar tener que escribir toda la palabra sin errores)

relig_tidy$income_inf <-
  if_else(str_detect(relig_tidy$income_inf, "refused"), NA, relig_tidy$income_inf)
relig_tidy$income_sup <-
  if_else(str_detect(relig_tidy$income_sup, "refused"), NA, relig_tidy$income_sup)
relig_tidy

# A tibble: 180 × 4
   religion income_inf income_sup people
   <chr>    <chr>      <chr>       <dbl>
 1 Agnostic ""         10             27
 2 Agnostic "10"       20             34
 3 Agnostic "20"       30             60
 4 Agnostic "30"       40             81
 5 Agnostic "40"       50             76
 6 Agnostic "50"       75            137
 7 Agnostic "75"       100           122
 8 Agnostic "100"      150           109
 9 Agnostic "150"      <NA>           84
10 Agnostic  <NA>      <NA>           96
# ℹ 170 more rows

Ejemplo: relig_income

relig_tidy

# A tibble: 180 × 4
   religion income_inf income_sup people
   <chr>    <chr>      <chr>       <dbl>
 1 Agnostic ""         10             27
 2 Agnostic "10"       20             34
 3 Agnostic "20"       30             60
 4 Agnostic "30"       40             81
 5 Agnostic "40"       50             76
 6 Agnostic "50"       75            137
 7 Agnostic "75"       100           122
 8 Agnostic "100"      150           109
 9 Agnostic "150"      <NA>           84
10 Agnostic  <NA>      <NA>           96
# ℹ 170 more rows

En la primera línea, ese "" también debería ser `NA``

relig_tidy$income_inf <-
  if_else(relig_tidy$income_inf == "", NA, relig_tidy$income_inf)
relig_tidy$income_suop <-
  if_else(relig_tidy$income_sup == "", NA, relig_tidy$income_sup)

Ejemplo: relig_income

relig_tidy

# A tibble: 180 × 5
   religion income_inf income_sup people income_suop
   <chr>    <chr>      <chr>       <dbl> <chr>      
 1 Agnostic <NA>       10             27 10         
 2 Agnostic 10         20             34 20         
 3 Agnostic 20         30             60 30         
 4 Agnostic 30         40             81 40         
 5 Agnostic 40         50             76 50         
 6 Agnostic 50         75            137 75         
 7 Agnostic 75         100           122 100        
 8 Agnostic 100        150           109 150        
 9 Agnostic 150        <NA>           84 <NA>       
10 Agnostic <NA>       <NA>           96 <NA>       
# ℹ 170 more rows

Además si te fijas los números son en realidad caracteres, así que vamos a convertirlos a números

Ejemplo: relig_income

Además si te fijas los números son en realidad caracteres, así que vamos a convertirlos a números

relig_tidy$income_inf <- as.numeric(relig_tidy$income_inf)
relig_tidy$income_sup <- as.numeric(relig_tidy$income_sup)
relig_tidy

# A tibble: 180 × 5
   religion income_inf income_sup people income_suop
   <chr>         <dbl>      <dbl>  <dbl> <chr>      
 1 Agnostic         NA         10     27 10         
 2 Agnostic         10         20     34 20         
 3 Agnostic         20         30     60 30         
 4 Agnostic         30         40     81 40         
 5 Agnostic         40         50     76 50         
 6 Agnostic         50         75    137 75         
 7 Agnostic         75        100    122 100        
 8 Agnostic        100        150    109 150        
 9 Agnostic        150         NA     84 <NA>       
10 Agnostic         NA         NA     96 <NA>       
# ℹ 170 more rows

Ejemplo: relig_income

¿Se te ocurre alguna forma de «cuantificar numéricamente» los valores ausentes que tenemos en este caso?

Si te fijas en realidad cuando hay ausente en el límite inferior en realidad podríamos poner un 0 (nadie puede ganar menos de eso) y cuando lo tenemos en el límite superior sería Inf

relig_tidy$income_inf <-
  if_else(is.na(relig_tidy$income_inf), 0, relig_tidy$income_inf)
relig_tidy$income_sup <-
  if_else(is.na(relig_tidy$income_sup), Inf, relig_tidy$income_sup)
relig_tidy

# A tibble: 180 × 5
   religion income_inf income_sup people income_suop
   <chr>         <dbl>      <dbl>  <dbl> <chr>      
 1 Agnostic          0         10     27 10         
 2 Agnostic         10         20     34 20         
 3 Agnostic         20         30     60 30         
 4 Agnostic         30         40     81 40         
 5 Agnostic         40         50     76 50         
 6 Agnostic         50         75    137 75         
 7 Agnostic         75        100    122 100        
 8 Agnostic        100        150    109 150        
 9 Agnostic        150        Inf     84 <NA>       
10 Agnostic          0        Inf     96 <NA>       
# ℹ 170 more rows
…
billboard |>
  pivot_longer(cols = "wk1":"wk76",
               names_to = "week",
               names_prefix = "wk",
               values_to = "position",
               values_drop_na = TRUE)

🐣 Caso práctico

En el paquete {tidyr} contamos con el dataset who2 (dataset de la Organización Mundial de la Salud). Intenta responder a las preguntas planteadas en el workbook.

who2

# A tibble: 7,240 × 58
   country      year sp_m_014 sp_m_1524 sp_m_2534 sp_m_3544 sp_m_4554 sp_m_5564
   <chr>       <dbl>    <dbl>     <dbl>     <dbl>     <dbl>     <dbl>     <dbl>
 1 Afghanistan  1980       NA        NA        NA        NA        NA        NA
 2 Afghanistan  1981       NA        NA        NA        NA        NA        NA
 3 Afghanistan  1982       NA        NA        NA        NA        NA        NA
 4 Afghanistan  1983       NA        NA        NA        NA        NA        NA
 5 Afghanistan  1984       NA        NA        NA        NA        NA        NA
 6 Afghanistan  1985       NA        NA        NA        NA        NA        NA
 7 Afghanistan  1986       NA        NA        NA        NA        NA        NA
 8 Afghanistan  1987       NA        NA        NA        NA        NA        NA
 9 Afghanistan  1988       NA        NA        NA        NA        NA        NA
10 Afghanistan  1989       NA        NA        NA        NA        NA        NA
# ℹ 7,230 more rows
# ℹ 50 more variables: sp_m_65 <dbl>, sp_f_014 <dbl>, sp_f_1524 <dbl>,
#   sp_f_2534 <dbl>, sp_f_3544 <dbl>, sp_f_4554 <dbl>, sp_f_5564 <dbl>,
#   sp_f_65 <dbl>, sn_m_014 <dbl>, sn_m_1524 <dbl>, sn_m_2534 <dbl>,
#   sn_m_3544 <dbl>, sn_m_4554 <dbl>, sn_m_5564 <dbl>, sn_m_65 <dbl>,
#   sn_f_014 <dbl>, sn_f_1524 <dbl>, sn_f_2534 <dbl>, sn_f_3544 <dbl>,
#   sn_f_4554 <dbl>, sn_f_5564 <dbl>, sn_f_65 <dbl>, ep_m_014 <dbl>, …
…
💻 Ejercicios resueltos: slice, sample, arrange

🐣 Workbook/caso práctico

📆 Planificación

Resolución de entrega II

El nombre de las columnas codifica el sexo (H hombre, M mujer, NC no consta) y el grupo etario (0-9, 10-19, 20-29, 30-39, 40-49, 50-59, 60-69, 70-79, ≥80 años y NC no consta).

library(readr)
datos <- read_csv(file = "./datos/messy_covid_data.csv")
datos

# A tibble: 9,486 × 31
   provincia_iso fecha               `0-9_H` `10-19_H` `20-29_H` `30-39_H`
   <chr>         <dttm>                <dbl>     <dbl>     <dbl>     <dbl>
 1 A             2020-03-01 00:00:00       0         0         0         0
 2 AL            2020-03-01 00:00:00       0         0         0         0
 3 B             2020-03-01 00:00:00       0         0         0         0
 4 BA            2020-03-01 00:00:00       0         1         0         0
 5 BI            2020-03-01 00:00:00       0         0         0         0
 6 C             2020-03-01 00:00:00       0         0         0         0
 7 CA            2020-03-01 00:00:00       0         0         0         0
 8 CO            2020-03-01 00:00:00       0         0         0         0
 9 GI            2020-03-01 00:00:00       0         0         0         0
10 GR            2020-03-01 00:00:00       0         0         0         0
# ℹ 9,476 more rows
# ℹ 25 more variables: `40-49_H` <dbl>, `50-59_H` <dbl>, `60-69_H` <dbl>,
#   `70-79_H` <dbl>, `80-Inf_H` <dbl>, `NC-NC_H` <dbl>, `0-9_M` <dbl>,
#   `10-19_M` <dbl>, `20-29_M` <dbl>, `30-39_M` <dbl>, `40-49_M` <dbl>,
#   `50-59_M` <dbl>, `60-69_M` <dbl>, `70-79_M` <dbl>, `80-Inf_M` <dbl>,
#   `NC-NC_M` <dbl>, `0-9_NC` <dbl>, `10-19_NC` <dbl>, `20-29_NC` <dbl>,
#   `30-39_NC` <dbl>, `40-49_NC` <dbl>, `50-59_NC` <dbl>, `60-69_NC` <dbl>, …
…
Resolución de entrega II

Razona por qué no es tidydata y conviérte a tidy data. Si te fijas hay muchísimas filas que nos sobran (ausentes) así que haz que al pivotar las elimine.

Es un pivot_longer() sin más: le indicamos que columnas no queremos pivotar, la variable a donde irán los nombres y cómo se llamará la variable de casos; le incluimos values_drop_na = TRUE para que elimine los ausentes (de ahí que hayamos convertido los 0 para hacerlo más sencillo aquí)

tidy_covid <-
  datos |> 
  pivot_longer(cols = -c("provincia_iso", "fecha"), names_to = "grupo", values_to = "casos",
               values_drop_na = TRUE)
tidy_covid

# A tibble: 36,842 × 4
   provincia_iso fecha               grupo    casos
   <chr>         <dttm>              <chr>    <dbl>
 1 B             2020-03-01 00:00:00 20-29_M      1
 2 BA            2020-03-01 00:00:00 10-19_H      1
 3 BA            2020-03-01 00:00:00 50-59_H      1
 4 GI            2020-03-01 00:00:00 80-Inf_M     1
 5 LE            2020-03-01 00:00:00 20-29_H      2
 6 LE            2020-03-01 00:00:00 60-69_H      1
 7 LE            2020-03-01 00:00:00 50-59_M      1
 8 M             2020-03-01 00:00:00 30-39_H      2
 9 M             2020-03-01 00:00:00 40-49_H      3
10 M             2020-03-01 00:00:00 50-59_H      2
# ℹ 36,832 more rows

Resolución de entrega II

Una de las columnas la tenemos codificada a veces como cosa-cosa_cosa, otras como 80-Inf_cosa, otras como NC-NC_cosa. Intenta separar dicha columna para generar tres columnas nuevas edad_inf, edad_sup y sexo de manera adecuada. Recuerda que NC es un ausente.

Si lo intentamos hacer sin procesar nada antes, vemos que los Inf y los NC figuran como tal, como cadena texto, lo que nos impide convertir a numérica el resto de la columna.

tidy_covid2 <-
  tidy_covid |> 
  separate(col = "grupo", into = c("edad_inf", "edad_sup", "sexo"), convert = TRUE)
tidy_covid2

# A tibble: 36,842 × 6
   provincia_iso fecha               edad_inf edad_sup sexo  casos
   <chr>         <dttm>              <chr>    <chr>    <chr> <dbl>
 1 B             2020-03-01 00:00:00 20       29       M         1
 2 BA            2020-03-01 00:00:00 10       19       H         1
 3 BA            2020-03-01 00:00:00 50       59       H         1
 4 GI            2020-03-01 00:00:00 80       Inf      M         1
 5 LE            2020-03-01 00:00:00 20       29       H         2
 6 LE            2020-03-01 00:00:00 60       69       H         1
 7 LE            2020-03-01 00:00:00 50       59       M         1
 8 M             2020-03-01 00:00:00 30       39       H         2
 9 M             2020-03-01 00:00:00 40       49       H         3
10 M             2020-03-01 00:00:00 50       59       H         2
# ℹ 36,832 more rows
…
