SOFTWARE II
…
[1] FALSE

🐣 Caso práctico

Incopora una nueva variable que represente la diferencia entre el peso del cerebro entre machos y hembras (machos - hembras) para cada especie.

Código

pinniped_tb$dif_m_f <- pinniped_tb$Male_brain_g - pinniped_tb$Female_brain_g
pinniped_tb

# A tibble: 33 × 8
   Species     Male_brain_g Female_brain_g Male_mass_Kg Female_mass_Kg Mate_type
   <chr>              <dbl>          <dbl>        <dbl>          <dbl> <chr>    
 1 Monachus s…         370             NA          173            272. mono     
 2 Monachus m…         480            480          260            275  mono     
 3 Mirounga a…         700            640         2275            488  poly     
 4 Mirounga l…        1431.           899.        3510            566. poly     
 5 Leptonycho…         535            638.         450            447  poly     
 6 Ommatophoc…         425            530          154.           164  mono     
 7 Lobodon ca…         578.           539.         220.           224  mono     
 8 Hydrurga l…         765            660          324            367  mono     
 9 Cystophora…         480            430          343.           222. mono     
10 Erignathus…          NA            460          312.           326  mono     
# ℹ 23 more rows
# ℹ 2 more variables: phoca <lgl>, dif_m_f <dbl>
…
Convierte a tidydata la base de datos realizando todas las opciones que consideres (consejo: usa papel y boli para bocetar como debería quedar la base de datos).

Un poco más de tidydata…

Del paquete {tidyr} usaremos el dataset world_bank_pop, que almacena la población de cada país y cada año, según el Banco Mundial. Convierte a tidydata

Código

world_bank_pop |> 
  pivot_longer(cols = "2000":"2017",
               names_to = "year",
               values_to = "pop",
               values_drop_na = TRUE)

# A tibble: 19,008 × 4
   country indicator   year    pop
   <chr>   <chr>       <chr> <dbl>
 1 ABW     SP.URB.TOTL 2000  41625
 2 ABW     SP.URB.TOTL 2001  42025
 3 ABW     SP.URB.TOTL 2002  42194
 4 ABW     SP.URB.TOTL 2003  42277
 5 ABW     SP.URB.TOTL 2004  42317
 6 ABW     SP.URB.TOTL 2005  42399
 7 ABW     SP.URB.TOTL 2006  42555
 8 ABW     SP.URB.TOTL 2007  42729
 9 ABW     SP.URB.TOTL 2008  42906
10 ABW     SP.URB.TOTL 2009  43079
# ℹ 18,998 more rows
…
exportado en .xlsx. Para ello nos basta con usar write.xlsx(objeto, file = ruta) del paquete {openxlsx}

library(openxlsx)
write.xlsx(tabla, file = "./datos/tabla_prueba.xlsx")

Desde web

Una de las principales ventajas de R es que podemos hacer uso de todas las funciones anteriores de importar pero directamente desde una web, sin necesidad de realizar la descarga manual: en lugar de pasarle la ruta local le indicaremos el enlace. Por ejemplo, vamos a descargar los datos de covid del ISCIII (https://cnecovid.isciii.es/covid19/#documentaci%C3%B3n-y-datos)

covid_datos <-
  read_csv(file = "https://cnecovid.isciii.es/covid19/resources/casos_hosp_uci_def_sexo_edad_provres.csv")
covid_datos

# A tibble: 700 × 8
   provincia_iso sexo  grupo_edad fecha      num_casos num_hosp num_uci num_def
   <chr>         <chr> <chr>      <date>         <dbl>    <dbl>   <dbl>   <dbl>
 1 A             H     0-9        2020-01-01         0        0       0       0
 2 A             H     10-19      2020-01-01         0        0       0       0
 3 A             H     20-29      2020-01-01         0        0       0       0
 4 A             H     30-39      2020-01-01         0        0       0       0
 5 A             H     40-49      2020-01-01         0        0       0       0
 6 A             H     50-59      2020-01-01         0        0       0       0
 7 A             H     60-69      2020-01-01         0        0       0       0
 8 A             H     70-79      2020-01-01         0        0       0       0
 9 A             H     80+        2020-01-01         0        0       0       0
10 A             H     NC         2020-01-01         0        0       0       0
# ℹ 690 more rows
…
library(climaemet)

# Definir la clave
apikey <- "eyJhbGciOiJIUzI1NiJ9.eyJzdWIiOiJqYXZhbHYwOUB1Y20uZXMiLCJqdGkiOiI4YTU1ODUxMS01MTE3LTQ4MTYtYmM4OS1hYmVkNDhiODBkYzkiLCJpc3MiOiJBRU1FVCIsImlhdCI6MTY2NjQ2OTcxNSwidXNlcklkIjoiOGE1NTg1MTEtNTExNy00ODE2LWJjODktYWJlZDQ4YjgwZGM5Iiwicm9sZSI6IiJ9.HEMR77lZy2ASjmOxJa8ppx2J8Za1IViurMX3p1reVBU"

aemet_api_key(apikey, install = TRUE, overwrite = TRUE)

Desde API (aemet)

Con dicho paquete podemos hacer una búsqueda de estaciones para conocer tanto su código postal como su código identificador dentro de la red AEMET

stations <- aemet_stations()
stations

# A tibble: 947 × 7
   indicativo indsinop nombre                 provincia altitud longitud latitud
   <chr>      <chr>    <chr>                  <chr>       <dbl>    <dbl>   <dbl>
 1 B013X      "08304"  ESCORCA, LLUC          ILLES BA…     490     2.89    39.8
 2 B051A      "08316"  SÓLLER, PUERTO         ILLES BA…       5     2.69    39.8
 3 B087X      ""       BANYALBUFAR            ILLES BA…      60     2.51    39.7
 4 B103B      "99103"  ANDRATX - SANT ELM     ILLES BA…      52     2.37    39.6
 5 B158X      ""       CALVIÀ, ES CAPDELLÀ    ILLES BA…      50     2.47    39.6
 6 B228       "08301"  PALMA, PUERTO          ILLES BA…       3     2.63    39.6
 7 B236C      ""       PALMA, UNIVERSIDAD     ILLES BA…      95     2.64    39.6
 8 B248       "08303"  SIERRA DE ALFABIA, BU… ILLES BA…    1030     2.71    39.7
 9 B275E      "08302"  SON BONET, AEROPUERTO  BALEARES       49     2.71    39.6
10 B278       "08306"  PALMA DE MALLORCA, AE… ILLES BA…       8     2.74    39.6
# ℹ 937 more rows

Desde API (aemet)

Por ejemplo, la estación del aeropuerto de El Prat, Barcelona, es el código "0076"

aemet_last_obs("0076")

# A tibble: 23 × 23
   idema   lon fint                 prec   alt  vmax    vv    dv   lat  dmax
   <chr> <dbl> <dttm>              <dbl> <dbl> <dbl> <dbl> <dbl> <dbl> <dbl>
 1 0076   2.07 2024-05-12 10:00:00     0     4   4.1   3.2   210  41.3   220
 2 0076   2.07 2024-05-12 11:00:00     0     4   4.6   3.2   200  41.3   200
 3 0076   2.07 2024-05-12 12:00:00     0     4   6.7   4.9   210  41.3   200
 4 0076   2.07 2024-05-12 13:00:00     0     4   8.2   6.1   210  41.3   220
 5 0076   2.07 2024-05-12 14:00:00     0     4   8.2   4.9   220  41.3   220
 6 0076   2.07 2024-05-12 15:00:00     0     4   7.2   5.4   210  41.3   210
 7 0076   2.07 2024-05-12 16:00:00     0     4   6.7   3.5   220  41.3   210
 8 0076   2.07 2024-05-12 17:00:00     0     4   6.2   3.8   220  41.3   220
 9 0076   2.07 2024-05-12 18:00:00     0     4   5.1   3.4   200  41.3   200
10 0076   2.07 2024-05-12 19:00:00     0     4   4.1   1.1   190  41.3   210
# ℹ 13 more rows
# ℹ 13 more variables: ubi <chr>, pres <dbl>, hr <dbl>, stdvv <dbl>, ts <dbl>,
#   pres_nmar <dbl>, tamin <dbl>, ta <dbl>, tamax <dbl>, tpr <dbl>, vis <dbl>,
#   stddv <dbl>, inso <dbl>
…
Desde Spotify

Incluso podemos hacer un uso más complejo de las API y bajarnos datos de sitios como Twitter o Spotify (ver documentación en https://www.rcharlie.com/spotifyr/)

library(spotifyr)
Sys.setenv(SPOTIFY_CLIENT_ID = "79753b0500d34faaaef8673cc36bcf47")
Sys.setenv(SPOTIFY_CLIENT_SECRET = 'ca2955d430064ce5ba6a158a02a19772')
access_token <- get_spotify_access_token()

rosalia <- get_artist_audio_features("Rosalía")
as_tibble(rosalia)

# A tibble: 63 × 39
   artist_name artist_id     album_id album_type album_images album_release_date
   <chr>       <chr>         <chr>    <chr>      <list>       <chr>             
 1 ROSALÍA     7ltDVBr6mKbR… 3zbiiu3… album      <df [3 × 3]> 2022-09-09        
 2 ROSALÍA     7ltDVBr6mKbR… 3zbiiu3… album      <df [3 × 3]> 2022-09-09        
 3 ROSALÍA     7ltDVBr6mKbR… 3zbiiu3… album      <df [3 × 3]> 2022-09-09        
 4 ROSALÍA     7ltDVBr6mKbR… 3zbiiu3… album      <df [3 × 3]> 2022-09-09        
 5 ROSALÍA     7ltDVBr6mKbR… 3zbiiu3… album      <df [3 × 3]> 2022-09-09        
 6 ROSALÍA     7ltDVBr6mKbR… 3zbiiu3… album      <df [3 × 3]> 2022-09-09        
 7 ROSALÍA     7ltDVBr6mKbR… 3zbiiu3… album      <df [3 × 3]> 2022-09-09        
 8 ROSALÍA     7ltDVBr6mKbR… 3zbiiu3… album      <df [3 × 3]> 2022-09-09        
 9 ROSALÍA     7ltDVBr6mKbR… 3zbiiu3… album      <df [3 × 3]> 2022-09-09        
10 ROSALÍA     7ltDVBr6mKbR… 3zbiiu3… album      <df [3 × 3]> 2022-09-09        
# ℹ 53 more rows
# ℹ 33 more variables: album_release_year <dbl>,
#   album_release_date_precision <chr>, danceability <dbl>, energy <dbl>,
#   key <int>, loudness <dbl>, mode <int>, speechiness <dbl>,
#   acousticness <dbl>, instrumentalness <dbl>, liveness <dbl>, valence <dbl>,
#   tempo <dbl>, track_id <chr>, analysis_url <chr>, time_signature <int>,
#   artists <list>, available_markets <list>, disc_number <int>, …

Desde chess.com

Incluso puedes bajarte datos de ajedrez de plataformas como https://chess.com (y analizarlas)

# devtools::install_github("JaseZiv/chessR")
library(chessR)
library(chess)
chess_data <- get_raw_chessdotcom(usernames = "DadosDeLaplace", year_month = c(202301:202303))
tibble::as_tibble(chess_data)

# A tibble: 543 × 28
   GameRules TimeClass Event      Site      Date       Round White  Black Result
   <chr>     <chr>     <chr>      <chr>     <chr>      <chr> <chr>  <chr> <chr> 
 1 chess     blitz     Live Chess Chess.com 2023-01-01 -     Dados… an_o… 0-1   
 2 chess     blitz     Live Chess Chess.com 2023-01-01 -     birph… Dado… 1-0   
 3 chess     blitz     Live Chess Chess.com 2023-01-01 -     Miste… Dado… 0-1   
 4 chess     blitz     Live Chess Chess.com 2023-01-01 -     Dados… jmck… 1-0   
 5 chess     blitz     Live Chess Chess.com 2023-01-01 -     Dados… saur… 1-0   
 6 chess     blitz     Live Chess Chess.com 2023-01-01 -     Dados… gorr… 0-1   
 7 chess     blitz     Live Chess Chess.com 2023-01-01 -     CIA-S… Dado… 1-0   
 8 chess     blitz     Live Chess Chess.com 2023-01-01 -     Dados… wojm… 1-0   
 9 chess     blitz     Live Chess Chess.com 2023-01-01 -     Dados… DylB… 1-0   
10 chess     blitz     Live Chess Chess.com 2023-01-01 -     timmy… Dado… 1-0   
# ℹ 533 more rows
# ℹ 19 more variables: CurrentPosition <chr>, Timezone <chr>, ECO <chr>,
#   ECOUrl <chr>, UTCDate <chr>, UTCTime <chr>, WhiteElo <chr>, BlackElo <chr>,
#   TimeControl <chr>, Termination <chr>, StartTime <chr>, EndDate <chr>,
#   EndTime <chr>, Link <chr>, Moves <chr>, Username <chr>, Variant <chr>,
#   SetUp <chr>, FEN <chr>
…
datos |>
  filtro(condicion)

starwars |>
  filter(condicion)

¿Cómo harías para… filtrar los personajes de ojos marrones?

¿Qué tipo de variable es? –> La variable eye_color es cualitativa así que está representada por textos

starwars |>
  filter(eye_color == "brown")

# A tibble: 21 × 14
   name     height  mass hair_color skin_color eye_color birth_year sex   gender
   <chr>     <int> <dbl> <chr>      <chr>      <chr>          <dbl> <chr> <chr> 
 1 Leia Or…    150  49   brown      light      brown           19   fema… femin…
 2 Biggs D…    183  84   black      light      brown           24   male  mascu…
 3 Han Solo    180  80   brown      fair       brown           29   male  mascu…
 4 Yoda         66  17   white      green      brown          896   male  mascu…
 5 Boba Fe…    183  78.2 black      fair       brown           31.5 male  mascu…
 6 Lando C…    177  79   black      dark       brown           31   male  mascu…
 7 Arvel C…     NA  NA   brown      fair       brown           NA   male  mascu…
 8 Wicket …     88  20   brown      brown      brown            8   male  mascu…
 9 Quarsh …    183  NA   black      dark       brown           62   <NA>  <NA>  
10 Shmi Sk…    163  NA   black      fair       brown           72   fema… femin…
# ℹ 11 more rows
# ℹ 5 more variables: homeworld <chr>, species <chr>, films <list>,
#   vehicles <list>, starships <list>

Filtrar filas: filter()

datos |>
  filtro(condicion)

starwars |>
  filter(condicion)

¿Cómo harías para… filtrar los personajes que no tienen ojos marrones?

starwars |>
  filter(eye_color != "brown")

# A tibble: 66 × 14
   name     height  mass hair_color skin_color eye_color birth_year sex   gender
   <chr>     <int> <dbl> <chr>      <chr>      <chr>          <dbl> <chr> <chr> 
 1 Luke Sk…    172    77 blond      fair       blue            19   male  mascu…
 2 C-3PO       167    75 <NA>       gold       yellow         112   none  mascu…
 3 R2-D2        96    32 <NA>       white, bl… red             33   none  mascu…
 4 Darth V…    202   136 none       white      yellow          41.9 male  mascu…
 5 Owen La…    178   120 brown, gr… light      blue            52   male  mascu…
 6 Beru Wh…    165    75 brown      light      blue            47   fema… femin…
 7 R5-D4        97    32 <NA>       white, red red             NA   none  mascu…
 8 Obi-Wan…    182    77 auburn, w… fair       blue-gray       57   male  mascu…
 9 Anakin …    188    84 blond      fair       blue            41.9 male  mascu…
10 Wilhuff…    180    NA auburn, g… fair       blue            64   male  mascu…
# ℹ 56 more rows
# ℹ 5 more variables: homeworld <chr>, species <chr>, films <list>,
#   vehicles <list>, starships <list>

Filtrar filas: filter()

datos |>
  filtro(condicion)

starwars |>
  filter(condicion)

¿Cómo harías para … filtrar los personajes que tengan los ojos marrones o azules?

starwars |>
  filter(eye_color %in% c("blue", "brown"))

# A tibble: 40 × 14
   name     height  mass hair_color skin_color eye_color birth_year sex   gender
   <chr>     <int> <dbl> <chr>      <chr>      <chr>          <dbl> <chr> <chr> 
 1 Luke Sk…    172    77 blond      fair       blue            19   male  mascu…
 2 Leia Or…    150    49 brown      light      brown           19   fema… femin…
 3 Owen La…    178   120 brown, gr… light      blue            52   male  mascu…
 4 Beru Wh…    165    75 brown      light      blue            47   fema… femin…
 5 Biggs D…    183    84 black      light      brown           24   male  mascu…
 6 Anakin …    188    84 blond      fair       blue            41.9 male  mascu…
 7 Wilhuff…    180    NA auburn, g… fair       blue            64   male  mascu…
 8 Chewbac…    228   112 brown      unknown    blue           200   male  mascu…
 9 Han Solo    180    80 brown      fair       brown           29   male  mascu…
10 Jek Ton…    180   110 brown      fair       blue            NA   male  mascu…
# ℹ 30 more rows
# ℹ 5 more variables: homeworld <chr>, species <chr>, films <list>,
#   vehicles <list>, starships <list>

Filtrar filas: filter()

datos |>
  filtro(condicion)

starwars |>
  filter(condicion)

Fíjate que %in% es equivalente a concatenar varios == con una conjunción o (|)

starwars |>
  filter(eye_color == "blue" | eye_color == "brown")

# A tibble: 40 × 14
   name     height  mass hair_color skin_color eye_color birth_year sex   gender
   <chr>     <int> <dbl> <chr>      <chr>      <chr>          <dbl> <chr> <chr> 
 1 Luke Sk…    172    77 blond      fair       blue            19   male  mascu…
 2 Leia Or…    150    49 brown      light      brown           19   fema… femin…
 3 Owen La…    178   120 brown, gr… light      blue            52   male  mascu…
 4 Beru Wh…    165    75 brown      light      blue            47   fema… femin…
 5 Biggs D…    183    84 black      light      brown           24   male  mascu…
 6 Anakin …    188    84 blond      fair       blue            41.9 male  mascu…
 7 Wilhuff…    180    NA auburn, g… fair       blue            64   male  mascu…
 8 Chewbac…    228   112 brown      unknown    blue           200   male  mascu…
 9 Han Solo    180    80 brown      fair       brown           29   male  mascu…
10 Jek Ton…    180   110 brown      fair       blue            NA   male  mascu…
# ℹ 30 more rows
# ℹ 5 more variables: homeworld <chr>, species <chr>, films <list>,
#   vehicles <list>, starships <list>
…
Del dataset anterior filtra solo los pacientes con tumor maligno y la variable V9 con valor 4 o inferior, eliminando además cualquier registro que contenga ausente en cualquiera de la variables.

Del dataset anterior obtén una muestra del 20% de los datos (cada registro puede ser elegido con la misma probabilidad), y órdenalos por de mayor a menor por la variable V1 y, en caso de empate, de menor a mayor por la variable V2

Selección columnas: select()

datos |> selecciono(var1, var2, ...)

starwars |> select(var1, var2, ...)

La opción más sencilla para seleccionar variables por nombre es select(), dando como argumentos los nombres de columnas sin comillas.

starwars |> select(name, hair_color)

# A tibble: 87 × 2
   name               hair_color   
   <chr>              <chr>        
 1 Luke Skywalker     blond        
 2 C-3PO              <NA>         
 3 R2-D2              <NA>         
 4 Darth Vader        none         
 5 Leia Organa        brown        
 6 Owen Lars          brown, grey  
 7 Beru Whitesun lars brown        
 8 R5-D4              <NA>         
 9 Biggs Darklighter  black        
10 Obi-Wan Kenobi     auburn, white
# ℹ 77 more rows
…
Selección columnas: select()

datos |> selecciono(var1, var2, ...)

starwars |> select(var1, var2, ...)

También podemos jugar con patrones en el nombre, aquellas que comiencen por un prefijo (starts_with()), terminen con un sufijo (ends_with()), contengan un texto (contains()) o cumplan una expresión regular (matches()).

# variables cuyo nombre acaba en "color" y contengan sexo o género
starwars |> select(ends_with("color"), matches("sex|gender"))

# A tibble: 87 × 5
   hair_color    skin_color  eye_color sex    gender   
   <chr>         <chr>       <chr>     <chr>  <chr>    
 1 blond         fair        blue      male   masculine
 2 <NA>          gold        yellow    none   masculine
 3 <NA>          white, blue red       none   masculine
 4 none          white       yellow    male   masculine
 5 brown         light       brown     female feminine 
 6 brown, grey   light       blue      male   masculine
 7 brown         light       blue      female feminine 
 8 <NA>          white, red  red       none   masculine
 9 black         light       brown     male   masculine
10 auburn, white fair        blue-gray male   masculine
# ℹ 77 more rows
…
Selección columnas: select()

datos |> selecciono(var1, var2, ...)

starwars |> select(var1, var2, ...)

Por último, podemos seleccionar columnas por tipo de dato haciendo uso de where() y dentro una función que devuelva un valor lógico de tipo de dato.

# Solo columnas numéricas o de texto
starwars |> select(where(is.numeric) | where(is.character))

# A tibble: 87 × 11
   height  mass birth_year name     hair_color skin_color eye_color sex   gender
    <int> <dbl>      <dbl> <chr>    <chr>      <chr>      <chr>     <chr> <chr> 
 1    172    77       19   Luke Sk… blond      fair       blue      male  mascu…
 2    167    75      112   C-3PO    <NA>       gold       yellow    none  mascu…
 3     96    32       33   R2-D2    <NA>       white, bl… red       none  mascu…
 4    202   136       41.9 Darth V… none       white      yellow    male  mascu…
 5    150    49       19   Leia Or… brown      light      brown     fema… femin…
 6    178   120       52   Owen La… brown, gr… light      blue      male  mascu…
 7    165    75       47   Beru Wh… brown      light      blue      fema… femin…
 8     97    32       NA   R5-D4    <NA>       white, red red       none  mascu…
 9    183    84       24   Biggs D… black      light      brown     male  mascu…
10    182    77       57   Obi-Wan… auburn, w… fair       blue-gray male  mascu…
# ℹ 77 more rows
# ℹ 2 more variables: homeworld <chr>, species <chr>
…
