Aprendizaje Supervisado I
…
El primer paso siempre será intentar resumir la información mediante el uso de tablas de contigencia, en este caso bidimensionales.

¿Cómo lo harías con tidyverse? ¿Y con R base?

Tablas de contigencia

Vamos a tomar la base de datos SatisfaccionPacientes.csv que captura datos de una encuesta de satisfacción de pacientes en un hospital

library(readr)
datos <-
  read_csv(file = "./datos/SatisfaccionPacientes.csv") |> 
  janitor::clean_names()
datos

# A tibble: 100 × 8
      id  edad genero    estado_civil tiempo_espera grado_satisfaccion
   <dbl> <dbl> <chr>     <chr>                <dbl>              <dbl>
 1     1    60 Masculino Casado                  28                  8
 2     2    44 Femenino  Soltero                 22                  8
 3     3    43 Masculino Soltero                  8                  9
 4     4    32 Masculino Soltero                 21                  8
 5     5    66 Masculino Divorciado               7                 10
 6     6    43 Masculino Divorciado              20                  8
 7     7    54 Masculino Casado                  18                  6
 8     8    55 Masculino Soltero                 29                  6
 9     9    56 Masculino Viudo                   17                  9
10    10    34 Femenino  Casado                  34                  8
# ℹ 90 more rows
# ℹ 2 more variables: numero_visitas <dbl>, estado_salud <chr>
…
data:  datos$genero and datos$estado_civil
p-value = 0.4462
alternative hypothesis: two.sided

Prueba de Fisher

Como hemos dicho es especialmente útil cuando tenemos solo 2 modalidades en cada cualitativa ya que nos proporciona métricas de asociación

Veamos un ejemplo con la tabla placebo_medicamento.csv

datos_placebo <- read_csv(file = "./datos/placebo_medicamento.csv")
datos_placebo

# A tibble: 33 × 3
   id_paciente grupo_tratamiento observado
         <dbl> <chr>             <chr>    
 1           1 medicamento       mejora   
 2           2 medicamento       mejora   
 3           3 medicamento       mejora   
 4           4 medicamento       mejora   
 5           5 medicamento       mejora   
 6           6 medicamento       mejora   
 7           7 medicamento       mejora   
 8           8 medicamento       mejora   
 9           9 medicamento       mejora   
10          10 medicamento       mejora   
# ℹ 23 more rows
…
Código

# OR estimado es de 11.95 --> al ser mayor que 1 implica que
# hay una asociación positiva entre las variables
# hay 12 veces más opciones de que te baje el colesterol si tomas el
# medicamento respecto a una posible mejora aleatoria (porque sí).

🐣 Caso práctico II: bronquitis y tabaco

Vamos a cargar el archivo de datos fumadores.csv donde tenemos datos de 96 pacientes sobre sí o fuman y quienes han desarrollado o no bronquitis.

datos <- read_csv(file = "./datos/fumadores.csv")
datos

# A tibble: 96 × 3
      id fumador estado    
   <dbl> <chr>   <chr>     
 1     1 sí      bronquitis
 2     2 sí      bronquitis
 3     3 sí      bronquitis
 4     4 sí      bronquitis
 5     5 sí      bronquitis
 6     6 sí      bronquitis
 7     7 sí      bronquitis
 8     8 sí      bronquitis
 9     9 sí      bronquitis
10    10 sí      bronquitis
# ℹ 86 more rows
…
Vamos a tomar de nuevo nuestros datos de satisfacción de pacientes

library(readr)
datos <-
  read_csv(file = "./datos/SatisfaccionPacientes.csv") |> 
  janitor::clean_names()
datos

# A tibble: 100 × 8
      id  edad genero    estado_civil tiempo_espera grado_satisfaccion
   <dbl> <dbl> <chr>     <chr>                <dbl>              <dbl>
 1     1    60 Masculino Casado                  28                  8
 2     2    44 Femenino  Soltero                 22                  8
 3     3    43 Masculino Soltero                  8                  9
 4     4    32 Masculino Soltero                 21                  8
 5     5    66 Masculino Divorciado               7                 10
 6     6    43 Masculino Divorciado              20                  8
 7     7    54 Masculino Casado                  18                  6
 8     8    55 Masculino Soltero                 29                  6
 9     9    56 Masculino Viudo                   17                  9
10    10    34 Femenino  Casado                  34                  8
# ℹ 90 more rows
# ℹ 2 more variables: numero_visitas <dbl>, estado_salud <chr>
…
Cuanti vs cuali

Imagina que tenemos \(n\) estudiantes de los que disponemos sus notas \(y_{ij}\) para \(j=1,2\) asignaturas alumnos (datos en notas_1factor_2cat.csv)

datos <- read_csv(file = "./datos/notas_1factor_2cat.csv")
datos

# A tibble: 1,000 × 3
   rowid notas asignatura
   <dbl> <dbl> <chr>     
 1     1  8.02 A         
 2     2  6.15 B         
 3     3  7.94 A         
 4     4  6.33 B         
 5     5  8.31 A         
 6     6  7.75 A         
 7     7  8.28 A         
 8     8  6.96 B         
 9     9  6.35 B         
10    10  8.57 A         
# ℹ 990 more rows
…
En este caso: rechazamos la hipótesis nula de igualdad de medias, es decir, existen evidencias suficientes para concluir que el grupo tiene un efecto en las notas

Caso real: crecimiento bebés

Vamos a usar la tabla leche_materna.csv que recopila los resultados obtenidos de 2 tratamientos de leche en polvo distintos para el crecimiento de bebés prematuros (de los que se miden su peso tras el tratamiento, partiendo de unas características similares, incluyendo además un grupo control).

¿El objetivo? Comprobar si alguno de los tratamientos fue efectivo.

datos <-
    read_csv(file = "./datos/leche_materna.csv") |> 
    janitor::clean_names()
datos

# A tibble: 30 × 2
   weight group
    <dbl> <chr>
 1   4.17 ctrl 
 2   5.58 ctrl 
 3   5.18 ctrl 
 4   6.11 ctrl 
 5   4.5  ctrl 
 6   4.61 ctrl 
 7   5.17 ctrl 
 8   4.53 ctrl 
 9   5.33 ctrl 
10   5.14 ctrl 
# ℹ 20 more rows

Caso real: crecimiento bebés

datos

# A tibble: 30 × 2
   weight group
    <dbl> <chr>
 1   4.17 ctrl 
 2   5.58 ctrl 
 3   5.18 ctrl 
 4   6.11 ctrl 
 5   4.5  ctrl 
 6   4.61 ctrl 
 7   5.17 ctrl 
 8   4.53 ctrl 
 9   5.33 ctrl 
10   5.14 ctrl 
# ℹ 20 more rows
…
Vamos a usar el fichero cushing_syndrome.csv que contiene datos del síndrome de Cushing, un trastorno hormonal asociado con un alto nivel de cortisol. Para cada individuo de la muestra tenemos recopiladas las tasas de excreción urinaria de dos metabolitos de esteroides (tetrahidrocortisona y pregnanetriol). La variable type recopila el tipo de síndrome: adenoma (a), hiperplasia bilateral (b), carcinoma (c) y desconocido (u)

📝 Carga el fichero cushing_syndrome.csv

Código

datos <-
  read_csv(file = "./datos/cushing_syndrome.csv") |> 
  janitor::clean_names()
datos

# A tibble: 27 × 3
   tetrahydrocortisone pregnanetriol type 
                 <dbl>         <dbl> <chr>
 1                 3.1         11.7  a    
 2                 3            1.3  a    
 3                 1.9          0.1  a    
 4                 3.8          0.04 a    
 5                 4.1          1.1  a    
 6                 1.9          0.4  a    
 7                 8.3          1    b    
 8                 3.8          0.2  b    
 9                 3.9          0.6  b    
10                 7.8          1.2  b    
# ℹ 17 more rows
…
t value –> estadístico bajo la hipótesis nula \(tvalue = estimate/std.error\)

Pr(>|t|) –> p-valor del contraste de significación (\(H_0:~\beta_j = 0\)).

Caso práctico

Vamos a poner en práctica lo aprendido con el dataset wine.csv disponible en el campus.

datos <- read_csv(file = "./datos/wine.csv")
datos

# A tibble: 27 × 7
    Year Price WinterRain  AGST HarvestRain   Age FrancePop
   <dbl> <dbl>      <dbl> <dbl>       <dbl> <dbl>     <dbl>
 1  1952  7.50        600  17.1         160    31    43184.
 2  1953  8.04        690  16.7          80    30    43495.
 3  1955  7.69        502  17.2         130    28    44218.
 4  1957  6.98        420  16.1         110    26    45152.
 5  1958  6.78        582  16.4         187    25    45654.
 6  1959  8.08        485  17.5         187    24    46129.
 7  1960  6.52        763  16.4         290    23    46584.
 8  1961  8.49        830  17.3          38    22    47128.
 9  1962  7.39        697  16.3          52    21    48089.
10  1963  6.71        608  15.7         155    20    48799.
# ℹ 17 more rows
…
AGST: crecimiento medio de la temperatura (en grados Celsius) durante la temporada.

HarvestRain: lluvia (en mm) que cayó ese año durante la cosecha.

FrancePop: población (miles de habitantes) de Francia.

Ver más en detalles en https://doi.org/10.1080/09332480.1995.10542468

El objetivo: predecir el precio

Caso práctico

datos

# A tibble: 27 × 7
    Year Price WinterRain  AGST HarvestRain   Age FrancePop
   <dbl> <dbl>      <dbl> <dbl>       <dbl> <dbl>     <dbl>
 1  1952  7.50        600  17.1         160    31    43184.
 2  1953  8.04        690  16.7          80    30    43495.
 3  1955  7.69        502  17.2         130    28    44218.
 4  1957  6.98        420  16.1         110    26    45152.
 5  1958  6.78        582  16.4         187    25    45654.
 6  1959  8.08        485  17.5         187    24    46129.
 7  1960  6.52        763  16.4         290    23    46584.
 8  1961  8.49        830  17.3          38    22    47128.
 9  1962  7.39        697  16.3          52    21    48089.
10  1963  6.71        608  15.7         155    20    48799.
# ℹ 17 more rows
…
\[\widehat{\beta}_1 = \frac{s_{xy}}{s_{x}^2}\] \[\widehat{\beta}_0 =  \overline{y} - \widehat{\beta}_1 \overline{x}\]

Clase 14: reg. multivariante

Etapas: ¿cómo se adaptan?

Caso práctico: wine.csv

Vamos a volver a usar nuestros datos wine.csv

datos <- read_csv(file = "./datos/wine.csv")
datos

# A tibble: 27 × 7
    Year Price WinterRain  AGST HarvestRain   Age FrancePop
   <dbl> <dbl>      <dbl> <dbl>       <dbl> <dbl>     <dbl>
 1  1952  7.50        600  17.1         160    31    43184.
 2  1953  8.04        690  16.7          80    30    43495.
 3  1955  7.69        502  17.2         130    28    44218.
 4  1957  6.98        420  16.1         110    26    45152.
 5  1958  6.78        582  16.4         187    25    45654.
 6  1959  8.08        485  17.5         187    24    46129.
 7  1960  6.52        763  16.4         290    23    46584.
 8  1961  8.49        830  17.3          38    22    47128.
 9  1962  7.39        697  16.3          52    21    48089.
10  1963  6.71        608  15.7         155    20    48799.
# ℹ 17 more rows
…
Aviso: en realidad MASS::stepAIC() no calcula exactamente el mismo BIC/AIC que las funciones BIC() e AIC(), sino que les suma una constante \(n(\log(2\pi) + 1) + \log(n)\) para BIC y \(n(\log(2\pi) + 1) + 2\) para AIC

Dado que es una constante nos da igual para comparar modelos, pero hace que NO podamos comparar salidas de BIC() y AIC() con salidas de MASS::stepAIC().

🐣 Caso práctico I: análisis de seatpos

Vamos a trabajar con la base de datos seatpos del paquete {faraway}: datos de 38 conductores donde el objetivo es predecir hipcenter, la posición del asiento del conductor, en función de distintas variables (ver ? faraway::seatpos)

datos <- faraway::seatpos |> as_tibble()
datos

# A tibble: 38 × 9
     Age Weight HtShoes    Ht Seated   Arm Thigh   Leg hipcenter
   <int>  <int>   <dbl> <dbl>  <dbl> <dbl> <dbl> <dbl>     <dbl>
 1    46    180    187.  185.   95.2  36.1  45.3  41.3    -206. 
 2    31    175    168.  166.   83.8  32.9  36.5  35.9    -178. 
 3    23    100    154.  152.   82.9  26    36.6  31       -71.7
 4    19    185    190.  187.   97.3  37.4  44.1  41      -258. 
 5    23    159    178   174.   93.9  29.5  40.1  36.9    -173. 
 6    47    170    179.  177    92.4  36    43.2  37.4    -185. 
 7    30    137    166.  165.   87.7  32.5  35.6  36.2    -165. 
 8    28    192    185.  183.   96.9  35.8  39.9  43.1    -271. 
 9    23    150    168.  165    91.4  29.4  35.5  33.4    -152. 
10    29    120    161.  159.   85.2  26.6  31    32.8    -114. 
# ℹ 28 more rows
…
