Aprendizaje Supervisado I
…
El primer paso siempre será intentar resumir la información mediante el uso de tablas de contigencia, en este caso bidimensionales.

¿Cómo lo harías con tidyverse? ¿Y con R base?

Tablas de contigencia

Vamos a tomar la base de datos SatisfaccionPacientes.csv que captura datos de una encuesta de satisfacción de pacientes en un hospital

library(readr)
datos <-
  read_csv(file = "./datos/SatisfaccionPacientes.csv") |> 
  janitor::clean_names()
datos

# A tibble: 100 × 8
      id  edad genero    estado_civil tiempo_espera grado_satisfaccion
   <dbl> <dbl> <chr>     <chr>                <dbl>              <dbl>
 1     1    60 Masculino Casado                  28                  8
 2     2    44 Femenino  Soltero                 22                  8
 3     3    43 Masculino Soltero                  8                  9
 4     4    32 Masculino Soltero                 21                  8
 5     5    66 Masculino Divorciado               7                 10
 6     6    43 Masculino Divorciado              20                  8
 7     7    54 Masculino Casado                  18                  6
 8     8    55 Masculino Soltero                 29                  6
 9     9    56 Masculino Viudo                   17                  9
10    10    34 Femenino  Casado                  34                  8
# ℹ 90 more rows
# ℹ 2 more variables: numero_visitas <dbl>, estado_salud <chr>
…
data:  datos$genero and datos$estado_civil
p-value = 0.4462
alternative hypothesis: two.sided

Prueba de Fisher

Como hemos dicho es especialmente útil cuando tenemos solo 2 modalidades en cada cualitativa ya que nos proporciona métricas de asociación

Veamos un ejemplo con la tabla placebo_medicamento.csv

datos_placebo <- read_csv(file = "./datos/placebo_medicamento.csv")
datos_placebo

# A tibble: 33 × 3
   id_paciente grupo_tratamiento observado
         <dbl> <chr>             <chr>    
 1           1 medicamento       mejora   
 2           2 medicamento       mejora   
 3           3 medicamento       mejora   
 4           4 medicamento       mejora   
 5           5 medicamento       mejora   
 6           6 medicamento       mejora   
 7           7 medicamento       mejora   
 8           8 medicamento       mejora   
 9           9 medicamento       mejora   
10          10 medicamento       mejora   
# ℹ 23 more rows
…
Código

# OR estimado es de 11.95 --> al ser mayor que 1 implica que
# hay una asociación positiva entre las variables
# hay 12 veces más opciones de que te baje el colesterol si tomas el
# medicamento respecto a una posible mejora aleatoria (porque sí).

🐣 Caso práctico II: bronquitis y tabaco

Vamos a cargar el archivo de datos fumadores.csv donde tenemos datos de 96 pacientes sobre sí o fuman y quienes han desarrollado o no bronquitis.

datos <- read_csv(file = "./datos/fumadores.csv")
datos

# A tibble: 96 × 3
      id fumador estado    
   <dbl> <chr>   <chr>     
 1     1 sí      bronquitis
 2     2 sí      bronquitis
 3     3 sí      bronquitis
 4     4 sí      bronquitis
 5     5 sí      bronquitis
 6     6 sí      bronquitis
 7     7 sí      bronquitis
 8     8 sí      bronquitis
 9     9 sí      bronquitis
10    10 sí      bronquitis
# ℹ 86 more rows
…
Vamos a tomar de nuevo nuestros datos de satisfacción de pacientes

library(readr)
datos <-
  read_csv(file = "./datos/SatisfaccionPacientes.csv") |> 
  janitor::clean_names()
datos

# A tibble: 100 × 8
      id  edad genero    estado_civil tiempo_espera grado_satisfaccion
   <dbl> <dbl> <chr>     <chr>                <dbl>              <dbl>
 1     1    60 Masculino Casado                  28                  8
 2     2    44 Femenino  Soltero                 22                  8
 3     3    43 Masculino Soltero                  8                  9
 4     4    32 Masculino Soltero                 21                  8
 5     5    66 Masculino Divorciado               7                 10
 6     6    43 Masculino Divorciado              20                  8
 7     7    54 Masculino Casado                  18                  6
 8     8    55 Masculino Soltero                 29                  6
 9     9    56 Masculino Viudo                   17                  9
10    10    34 Femenino  Casado                  34                  8
# ℹ 90 more rows
# ℹ 2 more variables: numero_visitas <dbl>, estado_salud <chr>
…
Cuanti vs cuali

Imagina que tenemos \(n\) estudiantes de los que disponemos sus notas \(y_{ij}\) para \(j=1,2\) asignaturas alumnos (datos en notas_1factor_2cat.csv)

datos <- read_csv(file = "./datos/notas_1factor_2cat.csv")
datos

# A tibble: 1,000 × 3
   rowid notas asignatura
   <dbl> <dbl> <chr>     
 1     1  8.02 A         
 2     2  6.15 B         
 3     3  7.94 A         
 4     4  6.33 B         
 5     5  8.31 A         
 6     6  7.75 A         
 7     7  8.28 A         
 8     8  6.96 B         
 9     9  6.35 B         
10    10  8.57 A         
# ℹ 990 more rows
…
En este caso: rechazamos la hipótesis nula de igualdad de medias, es decir, existen evidencias suficientes para concluir que el grupo tiene un efecto en las notas

Caso real: crecimiento bebés

Vamos a usar la tabla leche_materna.csv que recopila los resultados obtenidos de 2 tratamientos de leche en polvo distintos para el crecimiento de bebés prematuros (de los que se miden su peso tras el tratamiento, partiendo de unas características similares, incluyendo además un grupo control).

¿El objetivo? Comprobar si alguno de los tratamientos fue efectivo.

datos <-
    read_csv(file = "./datos/leche_materna.csv") |> 
    janitor::clean_names()
datos

# A tibble: 30 × 2
   weight group
    <dbl> <chr>
 1   4.17 ctrl 
 2   5.58 ctrl 
 3   5.18 ctrl 
 4   6.11 ctrl 
 5   4.5  ctrl 
 6   4.61 ctrl 
 7   5.17 ctrl 
 8   4.53 ctrl 
 9   5.33 ctrl 
10   5.14 ctrl 
# ℹ 20 more rows

Caso real: crecimiento bebés

datos

# A tibble: 30 × 2
   weight group
    <dbl> <chr>
 1   4.17 ctrl 
 2   5.58 ctrl 
 3   5.18 ctrl 
 4   6.11 ctrl 
 5   4.5  ctrl 
 6   4.61 ctrl 
 7   5.17 ctrl 
 8   4.53 ctrl 
 9   5.33 ctrl 
10   5.14 ctrl 
# ℹ 20 more rows
…
Vamos a usar el fichero cushing_syndrome.csv que contiene datos del síndrome de Cushing, un trastorno hormonal asociado con un alto nivel de cortisol. Para cada individuo de la muestra tenemos recopiladas las tasas de excreción urinaria de dos metabolitos de esteroides (tetrahidrocortisona y pregnanetriol). La variable type recopila el tipo de síndrome: adenoma (a), hiperplasia bilateral (b), carcinoma (c) y desconocido (u)

📝 Carga el fichero cushing_syndrome.csv

Código

datos <-
  read_csv(file = "./datos/cushing_syndrome.csv") |> 
  janitor::clean_names()
datos

# A tibble: 27 × 3
   tetrahydrocortisone pregnanetriol type 
                 <dbl>         <dbl> <chr>
 1                 3.1         11.7  a    
 2                 3            1.3  a    
 3                 1.9          0.1  a    
 4                 3.8          0.04 a    
 5                 4.1          1.1  a    
 6                 1.9          0.4  a    
 7                 8.3          1    b    
 8                 3.8          0.2  b    
 9                 3.9          0.6  b    
10                 7.8          1.2  b    
# ℹ 17 more rows
…
