SOFTWARE PARA GESTIÓN DE BASES DE DATOS
…
[1] FALSE

🐣 Caso práctico

Incopora una nueva variable que represente la diferencia entre el peso del cerebro entre machos y hembras (machos - hembras) para cada especie.

Code

pinniped_tb$dif_m_f <- pinniped_tb$Male_brain_g - pinniped_tb$Female_brain_g
pinniped_tb

# A tibble: 33 × 8
   Species     Male_brain_g Female_brain_g Male_mass_Kg Female_mass_Kg Mate_type
   <chr>              <dbl>          <dbl>        <dbl>          <dbl> <chr>    
 1 Monachus s…         370             NA          173            272. mono     
 2 Monachus m…         480            480          260            275  mono     
 3 Mirounga a…         700            640         2275            488  poly     
 4 Mirounga l…        1431.           899.        3510            566. poly     
 5 Leptonycho…         535            638.         450            447  poly     
 6 Ommatophoc…         425            530          154.           164  mono     
 7 Lobodon ca…         578.           539.         220.           224  mono     
 8 Hydrurga l…         765            660          324            367  mono     
 9 Cystophora…         480            430          343.           222. mono     
10 Erignathus…          NA            460          312.           326  mono     
# ℹ 23 more rows
# ℹ 2 more variables: phoca <lgl>, dif_m_f <dbl>
…
Todos empiezan por new_ (y no hay otro tipo) así que le indicamos al pivotar que los nombres tienen un prefijo a quitar. Además separamos ya entre tipo y sexo-edad (separados por _) y eliminamos ausentes. Tras ello separamos sexo de edad

Code

who |>
  pivot_longer(cols = "new_sp_m014":"newrel_f65",
               names_to = c("type", "sex-age"),
               values_to = "cases",
               names_prefix = "new_",
               names_sep = "_",
               values_drop_na = TRUE) |> 
  separate(col = "sex-age", into = c("sex", "age"),
           sep = 1)

# A tibble: 76,046 × 7
   country     iso3   year type  sex   age   cases
   <chr>       <chr> <dbl> <chr> <chr> <chr> <dbl>
 1 Afghanistan AFG    1997 sp    m     014       0
 2 Afghanistan AFG    1997 sp    m     1524     10
 3 Afghanistan AFG    1997 sp    m     2534      6
 4 Afghanistan AFG    1997 sp    m     3544      3
 5 Afghanistan AFG    1997 sp    m     4554      5
 6 Afghanistan AFG    1997 sp    m     5564      2
 7 Afghanistan AFG    1997 sp    m     65        0
 8 Afghanistan AFG    1997 sp    f     014       5
 9 Afghanistan AFG    1997 sp    f     1524     38
10 Afghanistan AFG    1997 sp    f     2534     36
# ℹ 76,036 more rows
…
🐣 Caso práctico

En la carpeta de datos tienes el dataset breast-cancer-wisconsin-data.csv. Crea un archivo .qmd y personalízalo incluyendo lo siguiente:

Importa el archivo csv a un tibble. ¿Es tidydata? ¿Cuántos pacientes y variables tenemos?

Code

datos <- read_csv(file = "./datos/breast-cancer-wisconsin-data.csv")
datos

# A tibble: 568 × 33
         id diagnosis radius_mean texture_mean perimeter_mean area_mean
      <dbl> <chr>           <dbl>        <dbl>          <dbl>     <dbl>
 1   842302 M                18.0         10.4          123.      1001 
 2   842517 M                20.6         17.8          133.      1326 
 3 84300903 M                19.7         21.2          130       1203 
 4 84348301 M                11.4         20.4           77.6      386.
 5 84358402 M                20.3         14.3          135.      1297 
 6   843786 M                12.4         15.7           82.6      477.
 7   844359 M                18.2         20.0          120.      1040 
 8 84458202 M                13.7         20.8           90.2      578.
 9   844981 M                13           21.8           87.5      520.
10 84501001 M                12.5         24.0           84.0      476.
# ℹ 558 more rows
# ℹ 27 more variables: smoothness_mean <dbl>, compactness_mean <dbl>,
#   concavity_mean <dbl>, `concave points_mean` <dbl>, symmetry_mean <dbl>,
#   fractal_dimension_mean <dbl>, radius_se <dbl>, texture_se <dbl>,
#   perimeter_se <dbl>, area_se <dbl>, smoothness_se <dbl>,
#   compactness_se <dbl>, concavity_se <dbl>, `concave points_se` <dbl>,
#   symmetry_se <dbl>, fractal_dimension_se <dbl>, radius_worst <dbl>, …
…
datos |>
  filtro(condicion)

starwars |>
  filter(condicion)

¿Cómo harías para… filtrar los personajes de ojos marrones?

¿Qué tipo de variable es? –> La variable eye_color es cualitativa así que está representada por textos

starwars |>
  filter(eye_color == "brown")

# A tibble: 21 × 14
   name     height  mass hair_color skin_color eye_color birth_year sex   gender
   <chr>     <int> <dbl> <chr>      <chr>      <chr>          <dbl> <chr> <chr> 
 1 Leia Or…    150  49   brown      light      brown           19   fema… femin…
 2 Biggs D…    183  84   black      light      brown           24   male  mascu…
 3 Han Solo    180  80   brown      fair       brown           29   male  mascu…
 4 Yoda         66  17   white      green      brown          896   male  mascu…
 5 Boba Fe…    183  78.2 black      fair       brown           31.5 male  mascu…
 6 Lando C…    177  79   black      dark       brown           31   male  mascu…
 7 Arvel C…     NA  NA   brown      fair       brown           NA   male  mascu…
 8 Wicket …     88  20   brown      brown      brown            8   male  mascu…
 9 Padmé A…    185  45   brown      light      brown           46   fema… femin…
10 Quarsh …    183  NA   black      dark       brown           62   male  mascu…
# ℹ 11 more rows
# ℹ 5 more variables: homeworld <chr>, species <chr>, films <list>,
#   vehicles <list>, starships <list>

Filtrar filas: filter()

datos |>
  filtro(condicion)

starwars |>
  filter(condicion)

¿Cómo harías para… filtrar los personajes que no tienen ojos marrones?

starwars |>
  filter(eye_color != "brown")

# A tibble: 66 × 14
   name     height  mass hair_color skin_color eye_color birth_year sex   gender
   <chr>     <int> <dbl> <chr>      <chr>      <chr>          <dbl> <chr> <chr> 
 1 Luke Sk…    172    77 blond      fair       blue            19   male  mascu…
 2 C-3PO       167    75 <NA>       gold       yellow         112   none  mascu…
 3 R2-D2        96    32 <NA>       white, bl… red             33   none  mascu…
 4 Darth V…    202   136 none       white      yellow          41.9 male  mascu…
 5 Owen La…    178   120 brown, gr… light      blue            52   male  mascu…
 6 Beru Wh…    165    75 brown      light      blue            47   fema… femin…
 7 R5-D4        97    32 <NA>       white, red red             NA   none  mascu…
 8 Obi-Wan…    182    77 auburn, w… fair       blue-gray       57   male  mascu…
 9 Anakin …    188    84 blond      fair       blue            41.9 male  mascu…
10 Wilhuff…    180    NA auburn, g… fair       blue            64   male  mascu…
# ℹ 56 more rows
# ℹ 5 more variables: homeworld <chr>, species <chr>, films <list>,
#   vehicles <list>, starships <list>

Filtrar filas: filter()

datos |>
  filtro(condicion)

starwars |>
  filter(condicion)

¿Cómo harías para … filtrar los personajes que tengan los ojos marrones o azules?

starwars |>
  filter(eye_color %in% c("blue", "brown"))

# A tibble: 40 × 14
   name     height  mass hair_color skin_color eye_color birth_year sex   gender
   <chr>     <int> <dbl> <chr>      <chr>      <chr>          <dbl> <chr> <chr> 
 1 Luke Sk…    172    77 blond      fair       blue            19   male  mascu…
 2 Leia Or…    150    49 brown      light      brown           19   fema… femin…
 3 Owen La…    178   120 brown, gr… light      blue            52   male  mascu…
 4 Beru Wh…    165    75 brown      light      blue            47   fema… femin…
 5 Biggs D…    183    84 black      light      brown           24   male  mascu…
 6 Anakin …    188    84 blond      fair       blue            41.9 male  mascu…
 7 Wilhuff…    180    NA auburn, g… fair       blue            64   male  mascu…
 8 Chewbac…    228   112 brown      unknown    blue           200   male  mascu…
 9 Han Solo    180    80 brown      fair       brown           29   male  mascu…
10 Jek Ton…    180   110 brown      fair       blue            NA   <NA>  <NA>  
# ℹ 30 more rows
# ℹ 5 more variables: homeworld <chr>, species <chr>, films <list>,
#   vehicles <list>, starships <list>

Filtrar filas: filter()

datos |>
  filtro(condicion)

starwars |>
  filter(condicion)

Fíjate que %in% es equivalente a concatenar varios == con una conjunción o (|)

starwars |>
  filter(eye_color == "blue" | eye_color == "brown")

# A tibble: 40 × 14
   name     height  mass hair_color skin_color eye_color birth_year sex   gender
   <chr>     <int> <dbl> <chr>      <chr>      <chr>          <dbl> <chr> <chr> 
 1 Luke Sk…    172    77 blond      fair       blue            19   male  mascu…
 2 Leia Or…    150    49 brown      light      brown           19   fema… femin…
 3 Owen La…    178   120 brown, gr… light      blue            52   male  mascu…
 4 Beru Wh…    165    75 brown      light      blue            47   fema… femin…
 5 Biggs D…    183    84 black      light      brown           24   male  mascu…
 6 Anakin …    188    84 blond      fair       blue            41.9 male  mascu…
 7 Wilhuff…    180    NA auburn, g… fair       blue            64   male  mascu…
 8 Chewbac…    228   112 brown      unknown    blue           200   male  mascu…
 9 Han Solo    180    80 brown      fair       brown           29   male  mascu…
10 Jek Ton…    180   110 brown      fair       blue            NA   <NA>  <NA>  
# ℹ 30 more rows
# ℹ 5 more variables: homeworld <chr>, species <chr>, films <list>,
#   vehicles <list>, starships <list>
…
Del dataset anterior filtra solo los pacientes con tumor maligno y la variable V9 con valor 4 o inferior, eliminando además cualquier registro que contenga ausente en cualquiera de la variables.

Del dataset anterior obtén una muestra del 20% de los datos (cada registro puede ser elegido con la misma probabilidad), y órdenalos por de mayor a menor por la variable V1 y, en caso de empate, de menor a mayor por la variable V2

Selección columnas: select()

datos |> selecciono(var1, var2, ...)

starwars |> select(var1, var2, ...)

La opción más sencilla para seleccionar variables por nombre es select(), dando como argumentos los nombres de columnas sin comillas.

starwars |> select(name, hair_color)

# A tibble: 87 × 2
   name               hair_color   
   <chr>              <chr>        
 1 Luke Skywalker     blond        
 2 C-3PO              <NA>         
 3 R2-D2              <NA>         
 4 Darth Vader        none         
 5 Leia Organa        brown        
 6 Owen Lars          brown, grey  
 7 Beru Whitesun Lars brown        
 8 R5-D4              <NA>         
 9 Biggs Darklighter  black        
10 Obi-Wan Kenobi     auburn, white
# ℹ 77 more rows
…
Selección columnas: select()

datos |> selecciono(var1, var2, ...)

starwars |> select(var1, var2, ...)

También podemos jugar con patrones en el nombre, aquellas que comiencen por un prefijo (starts_with()), terminen con un sufijo (ends_with()), contengan un texto (contains()) o cumplan una expresión regular (matches()).

# variables cuyo nombre acaba en "color" y contengan sexo o género
starwars |> select(ends_with("color"), matches("sex|gender"))

# A tibble: 87 × 5
   hair_color    skin_color  eye_color sex    gender   
   <chr>         <chr>       <chr>     <chr>  <chr>    
 1 blond         fair        blue      male   masculine
 2 <NA>          gold        yellow    none   masculine
 3 <NA>          white, blue red       none   masculine
 4 none          white       yellow    male   masculine
 5 brown         light       brown     female feminine 
 6 brown, grey   light       blue      male   masculine
 7 brown         light       blue      female feminine 
 8 <NA>          white, red  red       none   masculine
 9 black         light       brown     male   masculine
10 auburn, white fair        blue-gray male   masculine
# ℹ 77 more rows
…
Selección columnas: select()

datos |> selecciono(var1, var2, ...)

starwars |> select(var1, var2, ...)

Por último, podemos seleccionar columnas por tipo de dato haciendo uso de where() y dentro una función que devuelva un valor lógico de tipo de dato.

# Solo columnas numéricas o de texto
starwars |> select(where(is.numeric) | where(is.character))

# A tibble: 87 × 11
   height  mass birth_year name     hair_color skin_color eye_color sex   gender
    <int> <dbl>      <dbl> <chr>    <chr>      <chr>      <chr>     <chr> <chr> 
 1    172    77       19   Luke Sk… blond      fair       blue      male  mascu…
 2    167    75      112   C-3PO    <NA>       gold       yellow    none  mascu…
 3     96    32       33   R2-D2    <NA>       white, bl… red       none  mascu…
 4    202   136       41.9 Darth V… none       white      yellow    male  mascu…
 5    150    49       19   Leia Or… brown      light      brown     fema… femin…
 6    178   120       52   Owen La… brown, gr… light      blue      male  mascu…
 7    165    75       47   Beru Wh… brown      light      blue      fema… femin…
 8     97    32       NA   R5-D4    <NA>       white, red red       none  mascu…
 9    183    84       24   Biggs D… black      light      brown     male  mascu…
10    182    77       57   Obi-Wan… auburn, w… fair       blue-gray male  mascu…
# ℹ 77 more rows
# ℹ 2 more variables: homeworld <chr>, species <chr>

Mover columnas: relocate()

datos |>
  recolocar(var1, despues_de = var2)

starwars |>
  relocate(var1, .after = var2)

Para facilitar la recolocación de variables tenemos una función para ello, relocate(), indicándole en .after o .before detrás o delante de qué columnas queremos moverlas.

starwars |> relocate(species, .before = name)

# A tibble: 87 × 14
   species name    height  mass hair_color skin_color eye_color birth_year sex  
   <chr>   <chr>    <int> <dbl> <chr>      <chr>      <chr>          <dbl> <chr>
 1 Human   Luke S…    172    77 blond      fair       blue            19   male 
 2 Droid   C-3PO      167    75 <NA>       gold       yellow         112   none 
 3 Droid   R2-D2       96    32 <NA>       white, bl… red             33   none 
 4 Human   Darth …    202   136 none       white      yellow          41.9 male 
 5 Human   Leia O…    150    49 brown      light      brown           19   fema…
 6 Human   Owen L…    178   120 brown, gr… light      blue            52   male 
 7 Human   Beru W…    165    75 brown      light      blue            47   fema…
 8 Droid   R5-D4       97    32 <NA>       white, red red             NA   none 
 9 Human   Biggs …    183    84 black      light      brown           24   male 
10 Human   Obi-Wa…    182    77 auburn, w… fair       blue-gray       57   male 
# ℹ 77 more rows
# ℹ 5 more variables: gender <chr>, homeworld <chr>, films <list>,
#   vehicles <list>, starships <list>

Renombrar: rename()

datos |> renombrar(nuevo = antiguo)

starwars |> rename(nuevo = antiguo)

A veces también podemos querer modificar la «metainformación» de los datos, renombrando columnas. Para ello usaremos de rename() poniendo primero el nombre nuevo y luego el antiguo.

starwars |> rename(nombre = name, altura = height, peso = mass)

# A tibble: 87 × 14
   nombre   altura  peso hair_color skin_color eye_color birth_year sex   gender
   <chr>     <int> <dbl> <chr>      <chr>      <chr>          <dbl> <chr> <chr> 
 1 Luke Sk…    172    77 blond      fair       blue            19   male  mascu…
 2 C-3PO       167    75 <NA>       gold       yellow         112   none  mascu…
 3 R2-D2        96    32 <NA>       white, bl… red             33   none  mascu…
 4 Darth V…    202   136 none       white      yellow          41.9 male  mascu…
 5 Leia Or…    150    49 brown      light      brown           19   fema… femin…
 6 Owen La…    178   120 brown, gr… light      blue            52   male  mascu…
 7 Beru Wh…    165    75 brown      light      blue            47   fema… femin…
 8 R5-D4        97    32 <NA>       white, red red             NA   none  mascu…
 9 Biggs D…    183    84 black      light      brown           24   male  mascu…
10 Obi-Wan…    182    77 auburn, w… fair       blue-gray       57   male  mascu…
# ℹ 77 more rows
# ℹ 5 more variables: homeworld <chr>, species <chr>, films <list>,
#   vehicles <list>, starships <list>

Extraer columnas: pull()

datos |> retirar(var)

starwars |> pull(var)

Si observas la salida de los select() sigue siendo una tabla tibble, ya que nos preserva la naturaleza de nuestros datos.

starwars |> select(name)

# A tibble: 87 × 1
   name              
   <chr>             
 1 Luke Skywalker    
 2 C-3PO             
 3 R2-D2             
 4 Darth Vader       
 5 Leia Organa       
 6 Owen Lars         
 7 Beru Whitesun Lars
 8 R5-D4             
 9 Biggs Darklighter 
10 Obi-Wan Kenobi    
# ℹ 77 more rows
…
📝 Del conjunto de datos originales, elimina las columnas de tipo lista, y tras ello elimina duplicados en la variable eye_color. Tras eliminar duplicados extrae dicha columna en un vector.

Modificar columnas: mutate()

datos |> modificar(nueva = funcion())

starwars |> mutate(nueva = funcion())

En muchas ocasiones querremos modificar o crear variables con mutate().

Vamos a crear por ejemplo una nueva variable height_m con la altura en metros.

starwars |> mutate(height_m = height / 100)

# A tibble: 87 × 15
   name     height  mass hair_color skin_color eye_color birth_year sex   gender
   <chr>     <int> <dbl> <chr>      <chr>      <chr>          <dbl> <chr> <chr> 
 1 Luke Sk…    172    77 blond      fair       blue            19   male  mascu…
 2 C-3PO       167    75 <NA>       gold       yellow         112   none  mascu…
 3 R2-D2        96    32 <NA>       white, bl… red             33   none  mascu…
 4 Darth V…    202   136 none       white      yellow          41.9 male  mascu…
 5 Leia Or…    150    49 brown      light      brown           19   fema… femin…
 6 Owen La…    178   120 brown, gr… light      blue            52   male  mascu…
 7 Beru Wh…    165    75 brown      light      blue            47   fema… femin…
 8 R5-D4        97    32 <NA>       white, red red             NA   none  mascu…
 9 Biggs D…    183    84 black      light      brown           24   male  mascu…
10 Obi-Wan…    182    77 auburn, w… fair       blue-gray       57   male  mascu…
# ℹ 77 more rows
# ℹ 6 more variables: homeworld <chr>, species <chr>, films <list>,
#   vehicles <list>, starships <list>, height_m <dbl>

Modificar columnas: mutate()

datos |> modificar(nueva = funcion())

starwars |> mutate(nueva = funcion())

Además con los argumentos opcionales podemos recolocar la columna modificada

starwars |> 
  mutate(height_m = height / 100,
         IMC = mass / (height_m^2), .before = name)

# A tibble: 87 × 16
   height_m   IMC name   height  mass hair_color skin_color eye_color birth_year
      <dbl> <dbl> <chr>   <int> <dbl> <chr>      <chr>      <chr>          <dbl>
 1     1.72  26.0 Luke …    172    77 blond      fair       blue            19  
 2     1.67  26.9 C-3PO     167    75 <NA>       gold       yellow         112  
 3     0.96  34.7 R2-D2      96    32 <NA>       white, bl… red             33  
 4     2.02  33.3 Darth…    202   136 none       white      yellow          41.9
 5     1.5   21.8 Leia …    150    49 brown      light      brown           19  
 6     1.78  37.9 Owen …    178   120 brown, gr… light      blue            52  
 7     1.65  27.5 Beru …    165    75 brown      light      blue            47  
 8     0.97  34.0 R5-D4      97    32 <NA>       white, red red             NA  
 9     1.83  25.1 Biggs…    183    84 black      light      brown           24  
10     1.82  23.2 Obi-W…    182    77 auburn, w… fair       blue-gray       57  
# ℹ 77 more rows
# ℹ 7 more variables: sex <chr>, gender <chr>, homeworld <chr>, species <chr>,
#   films <list>, vehicles <list>, starships <list>
…
