SOFTWARE PARA GESTIÓN DE BASES DE DATOS
…
Ejemplo de entrega

library(dplyr)
starwars

# A tibble: 87 × 14
   name     height  mass hair_color skin_color eye_color birth_year sex   gender
   <chr>     <int> <dbl> <chr>      <chr>      <chr>          <dbl> <chr> <chr> 
 1 Luke Sk…    172    77 blond      fair       blue            19   male  mascu…
 2 C-3PO       167    75 <NA>       gold       yellow         112   none  mascu…
 3 R2-D2        96    32 <NA>       white, bl… red             33   none  mascu…
 4 Darth V…    202   136 none       white      yellow          41.9 male  mascu…
 5 Leia Or…    150    49 brown      light      brown           19   fema… femin…
 6 Owen La…    178   120 brown, gr… light      blue            52   male  mascu…
 7 Beru Wh…    165    75 brown      light      blue            47   fema… femin…
 8 R5-D4        97    32 <NA>       white, red red             NA   none  mascu…
 9 Biggs D…    183    84 black      light      brown           24   male  mascu…
10 Obi-Wan…    182    77 auburn, w… fair       blue-gray       57   male  mascu…
# ℹ 77 more rows
# ℹ 5 more variables: homeworld <chr>, species <chr>, films <list>,
#   vehicles <list>, starships <list>
…
No lo es ya que en realidad solo deberíamos tener una variable de ingresos y la tenemos dividida en 11: todas ellas es la misma variable solo que adopta un valor diferente. ¿Cómo convertirla a tidy data?

Ejemplo: relig_income

La idea es pivotar todas las columnas de ingresos para que acaben en una sola columna llamada income, y los valores (el número de personas) en otra llamada people (por ejemplo). La tabla la haremos más larga y menos ancha así que…

relig_tidy <-
  relig_income |>
  pivot_longer(cols = "<$10k":"Don't know/refused", names_to = "income",
               values_to = "people")
relig_tidy 

# A tibble: 180 × 3
   religion income             people
   <chr>    <chr>               <dbl>
 1 Agnostic <$10k                  27
 2 Agnostic $10-20k                34
 3 Agnostic $20-30k                60
 4 Agnostic $30-40k                81
 5 Agnostic $40-50k                76
 6 Agnostic $50-75k               137
 7 Agnostic $75-100k              122
 8 Agnostic $100-150k             109
 9 Agnostic >150k                  84
10 Agnostic Don't know/refused     96
# ℹ 170 more rows

Ejemplo: relig_income

Vamos a hilar más fino: ahora mismo en la variable income en realidad tenemos dos valores, el límite inferior y el superior de la renta. Vamos a separar dicha variable e ingresos en dos, llamadas income_inf y income_sup

relig_tidy 

# A tibble: 180 × 3
   religion income             people
   <chr>    <chr>               <dbl>
 1 Agnostic <$10k                  27
 2 Agnostic $10-20k                34
 3 Agnostic $20-30k                60
 4 Agnostic $30-40k                81
 5 Agnostic $40-50k                76
 6 Agnostic $50-75k               137
 7 Agnostic $75-100k              122
 8 Agnostic $100-150k             109
 9 Agnostic >150k                  84
10 Agnostic Don't know/refused     96
# ℹ 170 more rows

Ejemplo: relig_income

Vamos a hilar más fino: ahora mismo en la variable income en realidad tenemos dos valores, el límite inferior y el superior de la renta. Vamos a separar dicha variable e ingresos en dos, llamadas income_inf y income_sup

relig_tidy |>
  # Separamos por -
  separate(income, into = c("income_inf", "income_sup"), sep = "-")

# A tibble: 180 × 4
   religion income_inf         income_sup people
   <chr>    <chr>              <chr>       <dbl>
 1 Agnostic <$10k              <NA>           27
 2 Agnostic $10                20k            34
 3 Agnostic $20                30k            60
 4 Agnostic $30                40k            81
 5 Agnostic $40                50k            76
 6 Agnostic $50                75k           137
 7 Agnostic $75                100k          122
 8 Agnostic $100               150k          109
 9 Agnostic >150k              <NA>           84
10 Agnostic Don't know/refused <NA>           96
# ℹ 170 more rows

¿Está ya bien? Fíjate bien…

Ejemplo: relig_income

relig_tidy |>
  # Separamos por -
  separate(income, into = c("income_inf", "income_sup"), sep = "-")

# A tibble: 180 × 4
   religion income_inf         income_sup people
   <chr>    <chr>              <chr>       <dbl>
 1 Agnostic <$10k              <NA>           27
 2 Agnostic $10                20k            34
 3 Agnostic $20                30k            60
 4 Agnostic $30                40k            81
 5 Agnostic $40                50k            76
 6 Agnostic $50                75k           137
 7 Agnostic $75                100k          122
 8 Agnostic $100               150k          109
 9 Agnostic >150k              <NA>           84
10 Agnostic Don't know/refused <NA>           96
# ℹ 170 more rows

Si te fijas la primera columna el "$10k" debería ser una cota superior, no inferior. ¿Cómo indicarle que separe bien ese caso?

Ejemplo: relig_income

Le indicaremos que separe si encuentra "-" o "<" (usamos | para separar ambas opciones)

relig_tidy |>
  # Separamos por -
  separate(income, into = c("income_inf", "income_sup"), sep = "-|<")

# A tibble: 180 × 4
   religion income_inf           income_sup people
   <chr>    <chr>                <chr>       <dbl>
 1 Agnostic ""                   $10k           27
 2 Agnostic "$10"                20k            34
 3 Agnostic "$20"                30k            60
 4 Agnostic "$30"                40k            81
 5 Agnostic "$40"                50k            76
 6 Agnostic "$50"                75k           137
 7 Agnostic "$75"                100k          122
 8 Agnostic "$100"               150k          109
 9 Agnostic ">150k"              <NA>           84
10 Agnostic "Don't know/refused" <NA>           96
# ℹ 170 more rows

Ejemplo: relig_income

relig_tidy <-
  relig_tidy |>
  # Separamos por -
  separate(income, into = c("income_inf", "income_sup"), sep = "-|<")
relig_tidy

# A tibble: 180 × 4
   religion income_inf           income_sup people
   <chr>    <chr>                <chr>       <dbl>
 1 Agnostic ""                   $10k           27
 2 Agnostic "$10"                20k            34
 3 Agnostic "$20"                30k            60
 4 Agnostic "$30"                40k            81
 5 Agnostic "$40"                50k            76
 6 Agnostic "$50"                75k           137
 7 Agnostic "$75"                100k          122
 8 Agnostic "$100"               150k          109
 9 Agnostic ">150k"              <NA>           84
10 Agnostic "Don't know/refused" <NA>           96
# ℹ 170 more rows

Piensa ahora como podemos convertir los límites de ingresos a numéricas (eliminando símbolos, letras, etc)

Ejemplo: relig_income

Para ello usaremos el paquete {stringr} que hemos visto antes, en concreto la función str_remove_all() a la que le podemos pasar los caracteres que queremos eliminar (fíjate que $ al ser un caracter reservado en R hay que indicárselo con \\$)

relig_tidy$income_inf <-
  str_remove_all(relig_tidy$income_inf, "\\$|>|k")
relig_tidy$income_sup <-
  str_remove_all(relig_tidy$income_sup, "\\$|>|k")

relig_tidy

# A tibble: 180 × 4
   religion income_inf          income_sup people
   <chr>    <chr>               <chr>       <dbl>
 1 Agnostic ""                  10             27
 2 Agnostic "10"                20             34
 3 Agnostic "20"                30             60
 4 Agnostic "30"                40             81
 5 Agnostic "40"                50             76
 6 Agnostic "50"                75            137
 7 Agnostic "75"                100           122
 8 Agnostic "100"               150           109
 9 Agnostic "150"               <NA>           84
10 Agnostic "Don't now/refused" <NA>           96
# ℹ 170 more rows

Ejemplo: relig_income

Fíjate que tenemos "Don't now/refused". ¿Qué deberíamos tener?

Debería ser un dato ausente así que usaremos if_else(): si contiene dicha frase, NA, en caso contrario su valor (consejo: str_detect() para detectar patrones en textos, y evitar tener que escribir toda la palabra sin errores)

relig_tidy$income_inf <-
  if_else(str_detect(relig_tidy$income_inf, "refused"), NA, relig_tidy$income_inf)
relig_tidy$income_sup <-
  if_else(str_detect(relig_tidy$income_sup, "refused"), NA, relig_tidy$income_sup)
relig_tidy

# A tibble: 180 × 4
   religion income_inf income_sup people
   <chr>    <chr>      <chr>       <dbl>
 1 Agnostic ""         10             27
 2 Agnostic "10"       20             34
 3 Agnostic "20"       30             60
 4 Agnostic "30"       40             81
 5 Agnostic "40"       50             76
 6 Agnostic "50"       75            137
 7 Agnostic "75"       100           122
 8 Agnostic "100"      150           109
 9 Agnostic "150"      <NA>           84
10 Agnostic  <NA>      <NA>           96
# ℹ 170 more rows

Ejemplo: relig_income

relig_tidy

# A tibble: 180 × 4
   religion income_inf income_sup people
   <chr>    <chr>      <chr>       <dbl>
 1 Agnostic ""         10             27
 2 Agnostic "10"       20             34
 3 Agnostic "20"       30             60
 4 Agnostic "30"       40             81
 5 Agnostic "40"       50             76
 6 Agnostic "50"       75            137
 7 Agnostic "75"       100           122
 8 Agnostic "100"      150           109
 9 Agnostic "150"      <NA>           84
10 Agnostic  <NA>      <NA>           96
# ℹ 170 more rows

En la primera línea, ese "" también debería ser `NA``

relig_tidy$income_inf <-
  if_else(relig_tidy$income_inf == "", NA, relig_tidy$income_inf)
relig_tidy$income_suop <-
  if_else(relig_tidy$income_sup == "", NA, relig_tidy$income_sup)

Ejemplo: relig_income

relig_tidy

# A tibble: 180 × 5
   religion income_inf income_sup people income_suop
   <chr>    <chr>      <chr>       <dbl> <chr>      
 1 Agnostic <NA>       10             27 10         
 2 Agnostic 10         20             34 20         
 3 Agnostic 20         30             60 30         
 4 Agnostic 30         40             81 40         
 5 Agnostic 40         50             76 50         
 6 Agnostic 50         75            137 75         
 7 Agnostic 75         100           122 100        
 8 Agnostic 100        150           109 150        
 9 Agnostic 150        <NA>           84 <NA>       
10 Agnostic <NA>       <NA>           96 <NA>       
# ℹ 170 more rows

Además si te fijas los números son en realidad caracteres, así que vamos a convertirlos a números

Ejemplo: relig_income

Además si te fijas los números son en realidad caracteres, así que vamos a convertirlos a números

relig_tidy$income_inf <- as.numeric(relig_tidy$income_inf)
relig_tidy$income_sup <- as.numeric(relig_tidy$income_sup)
relig_tidy

# A tibble: 180 × 5
   religion income_inf income_sup people income_suop
   <chr>         <dbl>      <dbl>  <dbl> <chr>      
 1 Agnostic         NA         10     27 10         
 2 Agnostic         10         20     34 20         
 3 Agnostic         20         30     60 30         
 4 Agnostic         30         40     81 40         
 5 Agnostic         40         50     76 50         
 6 Agnostic         50         75    137 75         
 7 Agnostic         75        100    122 100        
 8 Agnostic        100        150    109 150        
 9 Agnostic        150         NA     84 <NA>       
10 Agnostic         NA         NA     96 <NA>       
# ℹ 170 more rows

Ejemplo: relig_income

¿Se te ocurre alguna forma de «cuantificar numéricamente» los valores ausentes que tenemos en este caso?

Si te fijas en realidad cuando hay ausente en el límite inferior en realidad podríamos poner un 0 (nadie puede ganar menos de eso) y cuando lo tenemos en el límite superior sería Inf

relig_tidy$income_inf <-
  if_else(is.na(relig_tidy$income_inf), 0, relig_tidy$income_inf)
relig_tidy$income_sup <-
  if_else(is.na(relig_tidy$income_sup), Inf, relig_tidy$income_sup)
relig_tidy

# A tibble: 180 × 5
   religion income_inf income_sup people income_suop
   <chr>         <dbl>      <dbl>  <dbl> <chr>      
 1 Agnostic          0         10     27 10         
 2 Agnostic         10         20     34 20         
 3 Agnostic         20         30     60 30         
 4 Agnostic         30         40     81 40         
 5 Agnostic         40         50     76 50         
 6 Agnostic         50         75    137 75         
 7 Agnostic         75        100    122 100        
 8 Agnostic        100        150    109 150        
 9 Agnostic        150        Inf     84 <NA>       
10 Agnostic          0        Inf     96 <NA>       
# ℹ 170 more rows
…
billboard |>
  pivot_longer(cols = "wk1":"wk76",
               names_to = "week",
               names_prefix = "wk",
               values_to = "position",
               values_drop_na = TRUE)

🐣 Caso práctico

En el paquete {tidyr} contamos con el dataset who2 (dataset de la Organización Mundial de la Salud). Intenta responder a las preguntas planteadas en el workbook.

who2

# A tibble: 7,240 × 58
   country      year sp_m_014 sp_m_1524 sp_m_2534 sp_m_3544 sp_m_4554 sp_m_5564
   <chr>       <dbl>    <dbl>     <dbl>     <dbl>     <dbl>     <dbl>     <dbl>
 1 Afghanistan  1980       NA        NA        NA        NA        NA        NA
 2 Afghanistan  1981       NA        NA        NA        NA        NA        NA
 3 Afghanistan  1982       NA        NA        NA        NA        NA        NA
 4 Afghanistan  1983       NA        NA        NA        NA        NA        NA
 5 Afghanistan  1984       NA        NA        NA        NA        NA        NA
 6 Afghanistan  1985       NA        NA        NA        NA        NA        NA
 7 Afghanistan  1986       NA        NA        NA        NA        NA        NA
 8 Afghanistan  1987       NA        NA        NA        NA        NA        NA
 9 Afghanistan  1988       NA        NA        NA        NA        NA        NA
10 Afghanistan  1989       NA        NA        NA        NA        NA        NA
# ℹ 7,230 more rows
# ℹ 50 more variables: sp_m_65 <dbl>, sp_f_014 <dbl>, sp_f_1524 <dbl>,
#   sp_f_2534 <dbl>, sp_f_3544 <dbl>, sp_f_4554 <dbl>, sp_f_5564 <dbl>,
#   sp_f_65 <dbl>, sn_m_014 <dbl>, sn_m_1524 <dbl>, sn_m_2534 <dbl>,
#   sn_m_3544 <dbl>, sn_m_4554 <dbl>, sn_m_5564 <dbl>, sn_m_65 <dbl>,
#   sn_f_014 <dbl>, sn_f_1524 <dbl>, sn_f_2534 <dbl>, sn_f_3544 <dbl>,
#   sn_f_4554 <dbl>, sn_f_5564 <dbl>, sn_f_65 <dbl>, ep_m_014 <dbl>, …
…
datos |>
  filtro(condicion)

starwars |>
  filter(condicion)

¿Cómo harías para… filtrar los personajes de ojos marrones?

¿Qué tipo de variable es? –> La variable eye_color es cualitativa así que está representada por textos

starwars |>
  filter(eye_color == "brown")

# A tibble: 21 × 14
   name     height  mass hair_color skin_color eye_color birth_year sex   gender
   <chr>     <int> <dbl> <chr>      <chr>      <chr>          <dbl> <chr> <chr> 
 1 Leia Or…    150  49   brown      light      brown           19   fema… femin…
 2 Biggs D…    183  84   black      light      brown           24   male  mascu…
 3 Han Solo    180  80   brown      fair       brown           29   male  mascu…
 4 Yoda         66  17   white      green      brown          896   male  mascu…
 5 Boba Fe…    183  78.2 black      fair       brown           31.5 male  mascu…
 6 Lando C…    177  79   black      dark       brown           31   male  mascu…
 7 Arvel C…     NA  NA   brown      fair       brown           NA   male  mascu…
 8 Wicket …     88  20   brown      brown      brown            8   male  mascu…
 9 Padmé A…    185  45   brown      light      brown           46   fema… femin…
10 Quarsh …    183  NA   black      dark       brown           62   male  mascu…
# ℹ 11 more rows
# ℹ 5 more variables: homeworld <chr>, species <chr>, films <list>,
#   vehicles <list>, starships <list>

Filtrar filas: filter()

datos |>
  filtro(condicion)

starwars |>
  filter(condicion)

¿Cómo harías para… filtrar los personajes que no tienen ojos marrones?

starwars |>
  filter(eye_color != "brown")

# A tibble: 66 × 14
   name     height  mass hair_color skin_color eye_color birth_year sex   gender
   <chr>     <int> <dbl> <chr>      <chr>      <chr>          <dbl> <chr> <chr> 
 1 Luke Sk…    172    77 blond      fair       blue            19   male  mascu…
 2 C-3PO       167    75 <NA>       gold       yellow         112   none  mascu…
 3 R2-D2        96    32 <NA>       white, bl… red             33   none  mascu…
 4 Darth V…    202   136 none       white      yellow          41.9 male  mascu…
 5 Owen La…    178   120 brown, gr… light      blue            52   male  mascu…
 6 Beru Wh…    165    75 brown      light      blue            47   fema… femin…
 7 R5-D4        97    32 <NA>       white, red red             NA   none  mascu…
 8 Obi-Wan…    182    77 auburn, w… fair       blue-gray       57   male  mascu…
 9 Anakin …    188    84 blond      fair       blue            41.9 male  mascu…
10 Wilhuff…    180    NA auburn, g… fair       blue            64   male  mascu…
# ℹ 56 more rows
# ℹ 5 more variables: homeworld <chr>, species <chr>, films <list>,
#   vehicles <list>, starships <list>

Filtrar filas: filter()

datos |>
  filtro(condicion)

starwars |>
  filter(condicion)

¿Cómo harías para … filtrar los personajes que tengan los ojos marrones o azules?

starwars |>
  filter(eye_color %in% c("blue", "brown"))

# A tibble: 40 × 14
   name     height  mass hair_color skin_color eye_color birth_year sex   gender
   <chr>     <int> <dbl> <chr>      <chr>      <chr>          <dbl> <chr> <chr> 
 1 Luke Sk…    172    77 blond      fair       blue            19   male  mascu…
 2 Leia Or…    150    49 brown      light      brown           19   fema… femin…
 3 Owen La…    178   120 brown, gr… light      blue            52   male  mascu…
 4 Beru Wh…    165    75 brown      light      blue            47   fema… femin…
 5 Biggs D…    183    84 black      light      brown           24   male  mascu…
 6 Anakin …    188    84 blond      fair       blue            41.9 male  mascu…
 7 Wilhuff…    180    NA auburn, g… fair       blue            64   male  mascu…
 8 Chewbac…    228   112 brown      unknown    blue           200   male  mascu…
 9 Han Solo    180    80 brown      fair       brown           29   male  mascu…
10 Jek Ton…    180   110 brown      fair       blue            NA   <NA>  <NA>  
# ℹ 30 more rows
# ℹ 5 more variables: homeworld <chr>, species <chr>, films <list>,
#   vehicles <list>, starships <list>

Filtrar filas: filter()

datos |>
  filtro(condicion)

starwars |>
  filter(condicion)

Fíjate que %in% es equivalente a concatenar varios == con una conjunción o (|)

starwars |>
  filter(eye_color == "blue" | eye_color == "brown")

# A tibble: 40 × 14
   name     height  mass hair_color skin_color eye_color birth_year sex   gender
   <chr>     <int> <dbl> <chr>      <chr>      <chr>          <dbl> <chr> <chr> 
 1 Luke Sk…    172    77 blond      fair       blue            19   male  mascu…
 2 Leia Or…    150    49 brown      light      brown           19   fema… femin…
 3 Owen La…    178   120 brown, gr… light      blue            52   male  mascu…
 4 Beru Wh…    165    75 brown      light      blue            47   fema… femin…
 5 Biggs D…    183    84 black      light      brown           24   male  mascu…
 6 Anakin …    188    84 blond      fair       blue            41.9 male  mascu…
 7 Wilhuff…    180    NA auburn, g… fair       blue            64   male  mascu…
 8 Chewbac…    228   112 brown      unknown    blue           200   male  mascu…
 9 Han Solo    180    80 brown      fair       brown           29   male  mascu…
10 Jek Ton…    180   110 brown      fair       blue            NA   <NA>  <NA>  
# ℹ 30 more rows
# ℹ 5 more variables: homeworld <chr>, species <chr>, films <list>,
#   vehicles <list>, starships <list>
…
