Introducción a la estadística descriptiva e inferencia
…
1.4.6 Frecuencias acumuladas

Imagina que queremos añadir una columna nueva llamada rol tal que a cada persona le asignamos de manera aleatoria "bueno" (con probabilidad 0.45), "malo" (con probabilidad 0.35), "villano" (con probabilidad 0.2)

Tendremos que hacer un sample() con las 3 opciones (y sus probabilidades) de tamaño 87 (tenemos 87 personajes).

starwars <- 
  starwars |> 
  mutate("rol" = sample(x = c("bueno", "malo", "villano"), size = 87,
                        replace = TRUE, prob = c(0.45, 0.35, 0.2)),
         .after = name)
starwars

# A tibble: 87 × 15
   name      rol   height  mass hair_color skin_color eye_color birth_year sex  
   <chr>     <chr>  <int> <dbl> <chr>      <chr>      <chr>          <dbl> <chr>
 1 Luke Sky… malo     172    77 blond      fair       blue            19   male 
 2 C-3PO     bueno    167    75 <NA>       gold       yellow         112   none 
 3 R2-D2     vill…     96    32 <NA>       white, bl… red             33   none 
 4 Darth Va… malo     202   136 none       white      yellow          41.9 male 
 5 Leia Org… vill…    150    49 brown      light      brown           19   fema…
 6 Owen Lars vill…    178   120 brown, gr… light      blue            52   male 
 7 Beru Whi… bueno    165    75 brown      light      blue            47   fema…
 8 R5-D4     vill…     97    32 <NA>       white, red red             NA   none 
 9 Biggs Da… malo     183    84 black      light      brown           24   male 
10 Obi-Wan … bueno    182    77 auburn, w… fair       blue-gray       57   male 
# ℹ 77 more rows
# ℹ 6 more variables: gender <chr>, homeworld <chr>, species <chr>,
#   films <list>, vehicles <list>, starships <list>
…
Rows: 100 Columns: 8
── Column specification ────────────────────────────────────────────────────────
Delimiter: ","
chr (3): Genero, EstadoCivil, EstadoSalud
dbl (5): ID, Edad, TiempoEspera, GradoSatisfaccion, NumeroVisitas

ℹ Use `spec()` to retrieve the full column specification for this data.
ℹ Specify the column types or set `show_col_types = FALSE` to quiet this message.

datos

# A tibble: 100 × 8
      id  edad genero    estado_civil tiempo_espera grado_satisfaccion
   <dbl> <dbl> <fct>     <fct>                <dbl>              <dbl>
 1     1    60 Masculino Casado                  28                  8
 2     2    44 Femenino  Soltero                 22                  8
 3     3    43 Masculino Soltero                  8                  9
 4     4    32 Masculino Soltero                 21                  8
 5     5    66 Masculino Divorciado               7                 10
 6     6    43 Masculino Divorciado              20                  8
 7     7    54 Masculino Casado                  18                  6
 8     8    55 Masculino Soltero                 29                  6
 9     9    56 Masculino Viudo                   17                  9
10    10    34 Femenino  Casado                  34                  8
# ℹ 90 more rows
# ℹ 2 more variables: numero_visitas <dbl>, estado_salud <chr>
…
